…
    #> 2                    2 161_acetaminophen 5.3         v5.0 18-JAN-19    
    #> 3                    3 3355_diclofenac   5.3         v5.0 18-JAN-19    
    #> 4                    4 36567_simvastatin 5.3         v5.0 18-JAN-19    
    #> 5                    5 723_amoxicillin   5.3         v5.0 18-JAN-19
    [cohortCount](https://darwin-eu.github.io/omopgenerics/reference/cohortCount.html)(cdm$drugs)
    #> # A tibble: 5 × 3
    #>   cohort_definition_id number_records number_subjects
    #>                  <int>          <int>           <int>
    #> 1                    1            137             137
    #> 2                    2          13908            2679
    #> 3                    3            830             830
    #> 4                    4            182             182
    #> 5                    5           4307            2130
    [attrition](https://darwin-eu.github.io/omopgenerics/reference/attrition.html)(cdm$drugs)
    #> # A tibble: 30 × 7
    #>    cohort_definition_id number_records number_subjects reason_id reason         
    #>                   <int>          <int>           <int>     <int> <chr>          
    #>  1                    1            137             137         1 Initial qualif…
    #>  2                    1            137             137         2 Record in obse…
    #>  3                    1            137             137         3 Record start <…
    #>  4                    1            137             137         4 Non-missing sex
    #>  5                    1            137             137         5 Non-missing ye…
    #>  6                    1            137             137         6 Merge overlapp…
    #>  7                    2          14205            2679         1 Initial qualif…
    #>  8                    2          14205            2679         2 Record in obse…
    #>  9                    2          14205            2679         3 Record start <…
    #> 10                    2          14205            2679         4 Non-missing sex
    #> # ℹ 20 more rows
    #> # ℹ 2 more variables: excluded_records <int>, excluded_subjects <int>
…
When some records in the cohort overlap, the cohort start date will be set to the earliest start date. If we set `overlap = "merge"`, the cohort end date will be set to the latest end date of the overlapping records.
    
    
    cdm$drugs_merge <- [conceptCohort](../reference/conceptCohort.html)(cdm, 
                               conceptSet = drug_codes,
                               overlap = "merge",
                               name = "drugs_merge")
    
    cdm$drugs_merge |>
      [attrition](https://darwin-eu.github.io/omopgenerics/reference/attrition.html)()
    #> # A tibble: 30 × 7
    #>    cohort_definition_id number_records number_subjects reason_id reason         
    #>                   <int>          <int>           <int>     <int> <chr>          
    #>  1                    1            137             137         1 Initial qualif…
    #>  2                    1            137             137         2 Record in obse…
    #>  3                    1            137             137         3 Record start <…
    #>  4                    1            137             137         4 Non-missing sex
    #>  5                    1            137             137         5 Non-missing ye…
    #>  6                    1            137             137         6 Merge overlapp…
    #>  7                    2          14205            2679         1 Initial qualif…
    #>  8                    2          14205            2679         2 Record in obse…
    #>  9                    2          14205            2679         3 Record start <…
    #> 10                    2          14205            2679         4 Non-missing sex
    #> # ℹ 20 more rows
    #> # ℹ 2 more variables: excluded_records <int>, excluded_subjects <int>

Alternatively, if we set `overlap = "extend"`, the cohort end date will be extended by summing the durations of each overlapping record.
    
    
    cdm$drugs_extend <- [conceptCohort](../reference/conceptCohort.html)(cdm, 
                               conceptSet = drug_codes,
                               overlap = "extend",
                               name = "drugs_extend")
    
    cdm$drugs_extend |>
      [attrition](https://darwin-eu.github.io/omopgenerics/reference/attrition.html)()
    #> # A tibble: 50 × 7
    #>    cohort_definition_id number_records number_subjects reason_id reason         
    #>                   <int>          <int>           <int>     <int> <chr>          
    #>  1                    1            137             137         1 Initial qualif…
    #>  2                    1            137             137         2 Record in obse…
    #>  3                    1            137             137         3 Record start <…
    #>  4                    1            137             137         4 Non-missing sex
    #>  5                    1            137             137         5 Non-missing ye…
    #>  6                    1            137             137         6 Add overlappin…
    #>  7                    1            137             137         7 Record in obse…
    #>  8                    1            137             137         8 Record start <…
    #>  9                    1            137             137         9 Non-missing sex
    #> 10                    1            137             137        10 Non-missing ye…
    #> # ℹ 40 more rows
    #> # ℹ 2 more variables: excluded_records <int>, excluded_subjects <int>
…
