…
    cohort <- cdm |>
        demographicsCohort(name = "cohort4",
        ageRange = [list](https://rdrr.io/r/base/list.html)([c](https://rdrr.io/r/base/c.html)(0, 19),[c](https://rdrr.io/r/base/c.html)(20, 64),[c](https://rdrr.io/r/base/c.html)(65, 150)),
        sex = [c](https://rdrr.io/r/base/c.html)("Male", "Female", "Both"),
        minPriorObservation = 365)
    #> ℹ Building new trimmed cohort
    #> Adding demographics information
    #> Creating initial cohort
    #> Trim sex
    #> Trim age
    #> Trim prior observation
    #> ✔ Cohort trimmed
    
    [attrition](https://darwin-eu.github.io/omopgenerics/reference/attrition.html)(cohort)
    #> # A tibble: 36 × 7
    #>    cohort_definition_id number_records number_subjects reason_id reason         
    #>                   <int>          <int>           <int>     <int> <chr>          
    #>  1                    1             10              10         1 Initial qualif…
    #>  2                    1             10              10         2 Sex requiremen…
    #>  3                    1              4               4         3 Age requiremen…
    #>  4                    1              3               3         4 Prior observat…
    #>  5                    2             10              10         1 Initial qualif…
    #>  6                    2              8               8         2 Sex requiremen…
    #>  7                    2              2               2         3 Age requiremen…
    #>  8                    2              1               1         4 Prior observat…
    #>  9                    3             10              10         1 Initial qualif…
    #> 10                    3              2               2         2 Sex requiremen…
    #> # ℹ 26 more rows
    #> # ℹ 2 more variables: excluded_records <int>, excluded_subjects <int>
…
