…
Note that both cohorts can be slightly different, in the first case four cohorts will always be created, whereas in the second one it will rely on whatever is in the data, if one the diclofenac cohort does not have ‘Female’ records the `diclofenac_female` cohort is not going to be created, if we have individuals with sex ‘None’ then a `{cohort_name}_none` cohort will be created.

The function is very powerful and multiple cohorts can be created in one go, in this example we will create cohorts by “age and sex” and by “year”.
    
    
    cdm$stratified <- cdm$medications |>
      [addAge](https://darwin-eu.github.io/PatientProfiles/reference/addAge.html)(ageGroup = [list](https://rdrr.io/r/base/list.html)("child" = [c](https://rdrr.io/r/base/c.html)(0,17), "18_to_65" = [c](https://rdrr.io/r/base/c.html)(18,64), "65_and_over" = [c](https://rdrr.io/r/base/c.html)(65, Inf))) |>
      [addSex](https://darwin-eu.github.io/PatientProfiles/reference/addSex.html)() |>
      [mutate](https://dplyr.tidyverse.org/reference/mutate.html)(year = [get_year](https://clock.r-lib.org/reference/clock-getters.html)(cohort_start_date)) |>
      [stratifyCohorts](../reference/stratifyCohorts.html)(strata = [list](https://rdrr.io/r/base/list.html)([c](https://rdrr.io/r/base/c.html)("sex", "age_group"), "year"), name = "stratified")
    
    [cohortCount](https://darwin-eu.github.io/omopgenerics/reference/cohortCount.html)(cdm$stratified)
    #> # A tibble: 232 × 3
    #>    cohort_definition_id number_records number_subjects
    #>                   <int>          <int>           <int>
    #>  1                    1           2941            2894
    #>  2                    2            380             370
    #>  3                    3           1397            1382
    #>  4                    4           2916            2857
    #>  5                    5            336             328
    #>  6                    6           1395            1373
    #>  7                    7            435             435
    #>  8                    8              0               0
    #>  9                    9              0               0
    #> 10                   10            395             395
    #> # ℹ 222 more rows
    [settings](https://darwin-eu.github.io/omopgenerics/reference/settings.html)(cdm$stratified)
    #> # A tibble: 232 × 11
    #>    cohort_definition_id cohort_name          target_cohort_id target_cohort_name
    #>                   <int> <chr>                           <int> <chr>             
    #>  1                    1 acetaminophen_femal…                1 acetaminophen     
    #>  2                    2 acetaminophen_femal…                1 acetaminophen     
    #>  3                    3 acetaminophen_femal…                1 acetaminophen     
    #>  4                    4 acetaminophen_male_…                1 acetaminophen     
    #>  5                    5 acetaminophen_male_…                1 acetaminophen     
    #>  6                    6 acetaminophen_male_…                1 acetaminophen     
    #>  7                    7 diclofenac_female_1…                2 diclofenac        
    #>  8                    8 diclofenac_female_6…                2 diclofenac        
    #>  9                    9 diclofenac_female_c…                2 diclofenac        
    #> 10                   10 diclofenac_male_18_…                2 diclofenac        
    #> # ℹ 222 more rows
    #> # ℹ 7 more variables: cdm_version <chr>, vocabulary_version <chr>,
    #> #   target_cohort_table_name <chr>, strata_columns <chr>, sex <chr>,
    #> #   age_group <chr>, year <dbl>
…
