…
Whether to display the exact quantiles that can be computed or only the qXX to summarise all of them.

## Value

A tibble with the available estimates.

## Examples
    
    
    # \donttest{
    [library](https://rdrr.io/r/base/library.html)([PatientProfiles](https://darwin-eu.github.io/PatientProfiles/))
    
    availableEstimates()
    #> # A tibble: 37 × 4
    #>    variable_type estimate_name      estimate_description           estimate_type
    #>    <chr>         <chr>              <chr>                          <chr>        
    #>  1 date          mean               mean of the variable of inter… date         
    #>  2 date          sd                 standard deviation of the var… date         
    #>  3 date          median             median of the variable of int… date         
    #>  4 date          qXX                qualtile of XX% the variable … date         
    #>  5 date          min                minimum of the variable of in… date         
    #>  6 date          max                maximum of the variable of in… date         
    #>  7 date          count_missing      number of missing values.      integer      
    #>  8 date          percentage_missing percentage of missing values   percentage   
    #>  9 numeric       sum                sum of all the values for the… numeric      
    #> 10 numeric       mean               mean of the variable of inter… numeric      
    #> # ℹ 27 more rows
…
