…
    #> • future_1191_aspirin: median, q25, q75
    #> • future_7052_morphine: median, q25, q75
    #> • future_7804_oxycodone: median, q25, q75
    #> • days_to_next_visit: median, q25, q75
    #> • sex: count, percentage
    #> • pharyngitis_before: count, percentage
    #> • first_visit: median, q25, q75, min, max
    #> • cohort_start_date: median, q25, q75, min, max
    #> • cohort_end_date: median, q25, q75, min, max
    #> ! Table is collected to memory as not all requested estimates are supported on
    #>   the database side
    #> → Start summary of data, at 2025-07-09 16:21:00.238599
    #> 
    #> ✔ Summary finished, at 2025-07-09 16:21:00.555486
    #> # A tibble: 159 × 6
    #>    group_name  group_level strata_name strata_level variable_name estimate_value
    #>    <chr>       <chr>       <chr>       <chr>        <chr>         <chr>         
    #>  1 cohort_name sinusitis   overall     overall      number recor… 2689          
    #>  2 cohort_name sinusitis   overall     overall      number subje… 2689          
    #>  3 cohort_name sinusitis   overall     overall      cohort_start… 1968-05-06    
    #>  4 cohort_name sinusitis   overall     overall      cohort_start… 1956-07-05    
    #>  5 cohort_name sinusitis   overall     overall      cohort_start… 1978-09-04    
    #>  6 cohort_name sinusitis   overall     overall      cohort_start… 1908-10-30    
    #>  7 cohort_name sinusitis   overall     overall      cohort_start… 2018-02-13    
    #>  8 cohort_name sinusitis   overall     overall      cohort_end_d… 2018-12-14    
    #>  9 cohort_name sinusitis   overall     overall      cohort_end_d… 2018-08-02    
    #> 10 cohort_name sinusitis   overall     overall      cohort_end_d… 2019-04-06    
    #> # ℹ 149 more rows
…
