…
    lahman$Batting |> 
      left_join(players_with_college,
                by = "playerID") |> 
      group_by(schoolID, birthYear) |>
      summarise(home_runs = sum(H, na.rm = TRUE), .groups = "drop") |> 
      collect()__
    
    
    # A tibble: 6,205 × 3
       schoolID   birthYear home_runs
       <chr>          <int>     <dbl>
     1 pennst          1981         0
     2 virginia        1987        27
     3 cacerri         1971         3
     4 usc             1947        11
     5 lsu             1927      1832
     6 wake            1915        72
     7 pepperdine      1969         1
     8 lsu             1978         2
     9 miamidade       1982         0
    10 cincy           1950         5
    # ℹ 6,195 more rows
    
    
    lahman$Pitching |> 
      left_join(players_with_college,
                by = "playerID") |> 
      group_by(schoolID, birthYear) |>
      summarise(strike_outs = sum(SO, na.rm = TRUE), .groups = "drop")|> 
      collect()__
    
    
    # A tibble: 3,663 × 3
       schoolID   birthYear strike_outs
       <chr>          <int>       <dbl>
     1 michigan        1967         888
     2 texas           1958         549
     3 nmstate         1968          98
     4 stanford        1972         218
     5 beloitwi        1872           3
     6 upenn           1964          14
     7 arkansas        1962         537
     8 mntclairst      1961          46
     9 incante         1893         526
    10 illinois        1979          19
    # ℹ 3,653 more rows
…
    
    <SQL>
    SELECT *
    FROM dbplyr_v0YE6sAW9X
    
    
    lahman$Batting |> 
      left_join(players_with_college,
                by = "playerID") |> 
      group_by(schoolID, birthYear) |>
      summarise(home_runs = sum(H, na.rm = TRUE), .groups = "drop") |> 
      collect()__
    
    
    # A tibble: 6,205 × 3
       schoolID   birthYear home_runs
       <chr>          <int>     <dbl>
     1 vermont         1869        38
     2 michigan        1967         2
     3 nmstate         1968         0
     4 cacerri         1971         3
     5 chicago         1874         2
     6 byu             1961        28
     7 pepperdine      1969         1
     8 lsu             1978         2
     9 miamidade       1982         0
    10 stanford        1961      1611
    # ℹ 6,195 more rows
    
    
    lahman$Pitching |> 
      left_join(players_with_college,
                by = "playerID") |> 
      group_by(schoolID, birthYear) |>
      summarise(strike_outs = sum(SO, na.rm = TRUE), .groups = "drop") |> 
      collect()__
    
    
    # A tibble: 3,663 × 3
       schoolID   birthYear strike_outs
       <chr>          <int>       <dbl>
     1 vermont         1869         161
     2 michigan        1967         888
     3 nmstate         1968          98
     4 cacerri         1971         327
     5 byu             1961        1030
     6 pepperdine      1969           4
     7 lsu             1978         162
     8 miamidade       1982          56
     9 stanford        1961           0
    10 incante         1893         526
    # ℹ 3,653 more rows
…
