…
    
    Limiting to domains of interest
    Getting concepts to include
    Adding descendants
    Search completed. Finishing up.
    ✔ 37 candidate concepts identified
    
    Time taken: 0 minutes and 1 seconds
    
    
    # A tibble: 37 × 6
       concept_id found_from   concept_name domain_id vocabulary_id standard_concept
            <int> <chr>        <chr>        <chr>     <chr>         <chr>           
     1     756039 From initia… Respiratory… Condition OMOP Extensi… S               
     2     705076 From initia… Post-acute … Condition OMOP Extensi… S               
     3   37310254 From initia… Otitis medi… Condition SNOMED        S               
     4   37310287 From initia… Myocarditis… Condition SNOMED        S               
     5     703445 From initia… Low risk ca… Condition SNOMED        S               
     6   37311061 From initia… COVID-19     Condition SNOMED        S               
     7    3655975 From initia… Sepsis due … Condition SNOMED        S               
     8    3655977 From initia… Rhabdomyoly… Condition SNOMED        S               
     9    1340294 From initia… Exacerbatio… Condition OMOP Extensi… S               
    10    3656667 From initia… Cardiomyopa… Condition SNOMED        S               
    # ℹ 27 more rows
…
