…
    [requireEunomia](https://darwin-eu.github.io/CDMConnector/reference/requireEunomia.html)()
    #> ℹ `EUNOMIA_DATA_FOLDER` set to: /tmp/RtmpebncMJ.
    #> 
    #> Download completed!
    con <- [dbConnect](https://dbi.r-dbi.org/reference/dbConnect.html)([duckdb](https://r.duckdb.org/reference/duckdb.html)(), [eunomiaDir](https://darwin-eu.github.io/CDMConnector/reference/eunomiaDir.html)())
    #> Creating CDM database /tmp/RtmpebncMJ/GiBleed_5.3.zip
    cdm <- [cdmFromCon](https://darwin-eu.github.io/CDMConnector/reference/cdmFromCon.html)(con = con, cdmSchema = "main", writeSchema = "main")
    
    summariseConceptIdCounts(
      cdm = cdm,
      omopTableName = "condition_occurrence",
      countBy = [c](https://rdrr.io/r/base/c.html)("record", "person"),
      sex = TRUE
    )
    #> # A tibble: 476 × 13
    #>    result_id cdm_name group_name group_level          strata_name strata_level
    #>        <int> <chr>    <chr>      <chr>                <chr>       <chr>       
    #>  1         1 Synthea  omop_table condition_occurrence overall     overall     
    #>  2         1 Synthea  omop_table condition_occurrence overall     overall     
    #>  3         1 Synthea  omop_table condition_occurrence overall     overall     
    #>  4         1 Synthea  omop_table condition_occurrence overall     overall     
    #>  5         1 Synthea  omop_table condition_occurrence overall     overall     
    #>  6         1 Synthea  omop_table condition_occurrence overall     overall     
    #>  7         1 Synthea  omop_table condition_occurrence overall     overall     
    #>  8         1 Synthea  omop_table condition_occurrence overall     overall     
    #>  9         1 Synthea  omop_table condition_occurrence overall     overall     
    #> 10         1 Synthea  omop_table condition_occurrence overall     overall     
    #> # ℹ 466 more rows
    #> # ℹ 7 more variables: variable_name <chr>, variable_level <chr>,
    #> #   estimate_name <chr>, estimate_type <chr>, estimate_value <chr>,
    #> #   additional_name <chr>, additional_level <chr>
…
