…
By default, the function returns the number of records (`estimate_name == "count_records"`) for each concept_id. To include counts by person, you can set the `countBy` argument to `"person"` or to c`("record", "person")` to obtain both record and person counts.
    
    
    [summariseConceptIdCounts](../reference/summariseConceptIdCounts.html)(cdm,
      omopTableName = "drug_exposure",
      countBy = [c](https://rdrr.io/r/base/c.html)("record", "person")
    ) |>
      [select](https://dplyr.tidyverse.org/reference/select.html)( variable_name, estimate_name, estimate_value) 
    #> # A tibble: 432 × 3
    #>    variable_name                                    estimate_name estimate_value
    #>    <chr>                                            <chr>         <chr>         
    #>  1 Midazolam                                        count_records 100           
    #>  2 Midazolam                                        count_subjec… 66            
    #>  3 Diclofenac Sodium 75 MG Delayed Release Oral Ta… count_records 100           
    #>  4 Diclofenac Sodium 75 MG Delayed Release Oral Ta… count_subjec… 61            
    #>  5 tetanus and diphtheria toxoids, adsorbed, prese… count_records 100           
    #>  6 tetanus and diphtheria toxoids, adsorbed, prese… count_subjec… 66            
    #>  7 Diazepam                                         count_records 100           
    #>  8 Diazepam                                         count_subjec… 62            
    #>  9 Astemizole                                       count_records 100           
    #> 10 Astemizole                                       count_subjec… 63            
    #> # ℹ 422 more rows
…
