…
    
    summarisedResult <- [summariseClinicalRecords](../reference/summariseClinicalRecords.html)(cdm, "condition_occurrence")
    #> ℹ Adding variables of interest to condition_occurrence.
    #> ℹ Summarising records per person in condition_occurrence.
    #> ℹ Summarising records in observation in condition_occurrence.
    #> ℹ Summarising records with start before birth date in condition_occurrence.
    #> ℹ Summarising records with end date before start date in condition_occurrence.
    #> ℹ Summarising domains in condition_occurrence.
    #> ℹ Summarising standard concepts in condition_occurrence.
    #> ℹ Summarising source vocabularies in condition_occurrence.
    #> ℹ Summarising concept types in condition_occurrence.
    #> ℹ Summarising missing data in condition_occurrence.
    
    summarisedResult |> [print](https://rdrr.io/r/base/print.html)()
    #> # A tibble: 74 × 13
    #>    result_id cdm_name       group_name group_level      strata_name strata_level
    #>        <int> <chr>          <chr>      <chr>            <chr>       <chr>       
    #>  1         1 mockOmopSketch omop_table condition_occur… overall     overall     
    #>  2         1 mockOmopSketch omop_table condition_occur… overall     overall     
    #>  3         1 mockOmopSketch omop_table condition_occur… overall     overall     
    #>  4         1 mockOmopSketch omop_table condition_occur… overall     overall     
    #>  5         1 mockOmopSketch omop_table condition_occur… overall     overall     
    #>  6         1 mockOmopSketch omop_table condition_occur… overall     overall     
    #>  7         1 mockOmopSketch omop_table condition_occur… overall     overall     
    #>  8         1 mockOmopSketch omop_table condition_occur… overall     overall     
    #>  9         1 mockOmopSketch omop_table condition_occur… overall     overall     
    #> 10         1 mockOmopSketch omop_table condition_occur… overall     overall     
    #> # ℹ 64 more rows
    #> # ℹ 7 more variables: variable_name <chr>, variable_level <chr>,
    #> #   estimate_name <chr>, estimate_type <chr>, estimate_value <chr>,
    #> #   additional_name <chr>, additional_level <chr>
…
