…
    
    # \donttest{
    [library](https://rdrr.io/r/base/library.html)([DrugUtilisation](https://darwin-eu.github.io/DrugUtilisation/))
    
    cdm <- [mockDrugUtilisation](mockDrugUtilisation.html)()
    
    summariseDoseCoverage(cdm = cdm, ingredientConceptId = 1125315)
    #> ℹ The following estimates will be computed:
    #> • daily_dose: count_missing, percentage_missing, mean, sd, q25, median, q75
    #> ! Table is collected to memory as not all requested estimates are supported on
    #>   the database side
    #> → Start summary of data, at 2025-07-03 14:03:08.642649
    #> ✔ Summary finished, at 2025-07-03 14:03:09.067993
    #> # A tibble: 56 × 13
    #>    result_id cdm_name group_name      group_level   strata_name strata_level
    #>        <int> <chr>    <chr>           <chr>         <chr>       <chr>       
    #>  1         1 DUS MOCK ingredient_name acetaminophen overall     overall     
    #>  2         1 DUS MOCK ingredient_name acetaminophen overall     overall     
    #>  3         1 DUS MOCK ingredient_name acetaminophen overall     overall     
    #>  4         1 DUS MOCK ingredient_name acetaminophen overall     overall     
    #>  5         1 DUS MOCK ingredient_name acetaminophen overall     overall     
    #>  6         1 DUS MOCK ingredient_name acetaminophen overall     overall     
    #>  7         1 DUS MOCK ingredient_name acetaminophen overall     overall     
    #>  8         1 DUS MOCK ingredient_name acetaminophen overall     overall     
    #>  9         1 DUS MOCK ingredient_name acetaminophen unit        milligram   
    #> 10         1 DUS MOCK ingredient_name acetaminophen unit        milligram   
    #> # ℹ 46 more rows
    #> # ℹ 7 more variables: variable_name <chr>, variable_level <chr>,
    #> #   estimate_name <chr>, estimate_type <chr>, estimate_value <chr>,
    #> #   additional_name <chr>, additional_level <chr>
…
