…
    cdm <- [mockDrugUtilisation](mockDrugUtilisation.html)()
    cdm <- [generateIngredientCohortSet](generateIngredientCohortSet.html)(cdm = cdm,
                                       ingredient = "acetaminophen",
                                       name = "dus_cohort")
    #> ℹ Subsetting drug_exposure table
    #> ℹ Checking whether any record needs to be dropped.
    #> ℹ Collapsing overlaping records.
    #> ℹ Collapsing records with gapEra = 1 days.
    
    cdm$dus_cohort |>
      summariseDrugUtilisation(ingredientConceptId = 1125315)
    #> # A tibble: 72 × 13
    #>    result_id cdm_name group_name  group_level   strata_name strata_level
    #>        <int> <chr>    <chr>       <chr>         <chr>       <chr>       
    #>  1         1 DUS MOCK cohort_name acetaminophen overall     overall     
    #>  2         1 DUS MOCK cohort_name acetaminophen overall     overall     
    #>  3         1 DUS MOCK cohort_name acetaminophen overall     overall     
    #>  4         1 DUS MOCK cohort_name acetaminophen overall     overall     
    #>  5         1 DUS MOCK cohort_name acetaminophen overall     overall     
    #>  6         1 DUS MOCK cohort_name acetaminophen overall     overall     
    #>  7         1 DUS MOCK cohort_name acetaminophen overall     overall     
    #>  8         1 DUS MOCK cohort_name acetaminophen overall     overall     
    #>  9         1 DUS MOCK cohort_name acetaminophen overall     overall     
    #> 10         1 DUS MOCK cohort_name acetaminophen overall     overall     
    #> # ℹ 62 more rows
    #> # ℹ 7 more variables: variable_name <chr>, variable_level <chr>,
    #> #   estimate_name <chr>, estimate_type <chr>, estimate_value <chr>,
    #> #   additional_name <chr>, additional_level <chr>
…
    [tidy](https://generics.r-lib.org/reference/tidy.html)(result)
    #> # A tibble: 1,098 × 11
    #>    cdm_name cohort_name variable_name variable_level time  outcome_count
    #>    <chr>    <chr>       <chr>         <chr>          <chr>         <int>
    #>  1 DUS MOCK cohort_1    overall       overall        0                26
    #>  2 DUS MOCK cohort_1    overall       overall        1                26
    #>  3 DUS MOCK cohort_1    overall       overall        2                26
    #>  4 DUS MOCK cohort_1    overall       overall        3                26
    #>  5 DUS MOCK cohort_1    overall       overall        4                25
    #>  6 DUS MOCK cohort_1    overall       overall        5                25
    #>  7 DUS MOCK cohort_1    overall       overall        6                25
    #>  8 DUS MOCK cohort_1    overall       overall        7                25
    #>  9 DUS MOCK cohort_1    overall       overall        8                25
    #> 10 DUS MOCK cohort_1    overall       overall        9                25
    #> # ℹ 1,088 more rows
    #> # ℹ 5 more variables: denominator_count <int>, ppc <dbl>, ppc_lower <dbl>,
    #> #   ppc_upper <dbl>, cohort_table_name <chr>
…
    
    # \donttest{
    [library](https://rdrr.io/r/base/library.html)([DrugUtilisation](https://darwin-eu.github.io/DrugUtilisation/))
    
    cdm <- [mockDrugUtilisation](mockDrugUtilisation.html)()
    
    summariseDoseCoverage(cdm = cdm, ingredientConceptId = 1125315)
    #> ℹ The following estimates will be computed:
    #> • daily_dose: count_missing, percentage_missing, mean, sd, q25, median, q75
    #> ! Table is collected to memory as not all requested estimates are supported on
    #>   the database side
    #> → Start summary of data, at 2025-07-03 14:03:08.642649
    #> ✔ Summary finished, at 2025-07-03 14:03:09.067993
    #> # A tibble: 56 × 13
    #>    result_id cdm_name group_name      group_level   strata_name strata_level
    #>        <int> <chr>    <chr>           <chr>         <chr>       <chr>       
    #>  1         1 DUS MOCK ingredient_name acetaminophen overall     overall     
    #>  2         1 DUS MOCK ingredient_name acetaminophen overall     overall     
    #>  3         1 DUS MOCK ingredient_name acetaminophen overall     overall     
    #>  4         1 DUS MOCK ingredient_name acetaminophen overall     overall     
    #>  5         1 DUS MOCK ingredient_name acetaminophen overall     overall     
    #>  6         1 DUS MOCK ingredient_name acetaminophen overall     overall     
    #>  7         1 DUS MOCK ingredient_name acetaminophen overall     overall     
    #>  8         1 DUS MOCK ingredient_name acetaminophen overall     overall     
    #>  9         1 DUS MOCK ingredient_name acetaminophen unit        milligram   
    #> 10         1 DUS MOCK ingredient_name acetaminophen unit        milligram   
    #> # ℹ 46 more rows
    #> # ℹ 7 more variables: variable_name <chr>, variable_level <chr>,
    #> #   estimate_name <chr>, estimate_type <chr>, estimate_value <chr>,
    #> #   additional_name <chr>, additional_level <chr>
…
