…
    [tidy](https://generics.r-lib.org/reference/tidy.html)(result)
    #> # A tibble: 1,098 × 11
    #>    cdm_name cohort_name variable_name variable_level time  outcome_count
    #>    <chr>    <chr>       <chr>         <chr>          <chr>         <int>
    #>  1 DUS MOCK cohort_1    overall       overall        0                26
    #>  2 DUS MOCK cohort_1    overall       overall        1                26
    #>  3 DUS MOCK cohort_1    overall       overall        2                26
    #>  4 DUS MOCK cohort_1    overall       overall        3                26
    #>  5 DUS MOCK cohort_1    overall       overall        4                25
    #>  6 DUS MOCK cohort_1    overall       overall        5                25
    #>  7 DUS MOCK cohort_1    overall       overall        6                25
    #>  8 DUS MOCK cohort_1    overall       overall        7                25
    #>  9 DUS MOCK cohort_1    overall       overall        8                25
    #> 10 DUS MOCK cohort_1    overall       overall        9                25
    #> # ℹ 1,088 more rows
    #> # ℹ 5 more variables: denominator_count <int>, ppc <dbl>, ppc_lower <dbl>,
    #> #   ppc_upper <dbl>, cohort_table_name <chr>
…
