…
    cdm <- [mockDrugUtilisation](mockDrugUtilisation.html)()
    cdm <- [generateIngredientCohortSet](generateIngredientCohortSet.html)(cdm = cdm,
                                       ingredient = "acetaminophen",
                                       name = "dus_cohort")
    #> ℹ Subsetting drug_exposure table
    #> ℹ Checking whether any record needs to be dropped.
    #> ℹ Collapsing overlaping records.
    #> ℹ Collapsing records with gapEra = 1 days.
    
    cdm$dus_cohort |>
      summariseDrugUtilisation(ingredientConceptId = 1125315)
    #> # A tibble: 72 × 13
    #>    result_id cdm_name group_name  group_level   strata_name strata_level
    #>        <int> <chr>    <chr>       <chr>         <chr>       <chr>       
    #>  1         1 DUS MOCK cohort_name acetaminophen overall     overall     
    #>  2         1 DUS MOCK cohort_name acetaminophen overall     overall     
    #>  3         1 DUS MOCK cohort_name acetaminophen overall     overall     
    #>  4         1 DUS MOCK cohort_name acetaminophen overall     overall     
    #>  5         1 DUS MOCK cohort_name acetaminophen overall     overall     
    #>  6         1 DUS MOCK cohort_name acetaminophen overall     overall     
    #>  7         1 DUS MOCK cohort_name acetaminophen overall     overall     
    #>  8         1 DUS MOCK cohort_name acetaminophen overall     overall     
    #>  9         1 DUS MOCK cohort_name acetaminophen overall     overall     
    #> 10         1 DUS MOCK cohort_name acetaminophen overall     overall     
    #> # ℹ 62 more rows
    #> # ℹ 7 more variables: variable_name <chr>, variable_level <chr>,
    #> #   estimate_name <chr>, estimate_type <chr>, estimate_value <chr>,
    #> #   additional_name <chr>, additional_level <chr>
…
