…
    lahman$Batting |> 
      left_join(players_with_college,
                by = "playerID") |> 
      group_by(schoolID, birthYear) |>
      summarise(home_runs = sum(H, na.rm = TRUE), .groups = "drop") |> 
      collect()__
    
    
    # A tibble: 6,205 × 3
       schoolID   birthYear home_runs
       <chr>          <int>     <dbl>
     1 pennst          1981         0
     2 virginia        1987        27
     3 cacerri         1971         3
     4 usc             1947        11
     5 lsu             1927      1832
     6 wake            1915        72
     7 pepperdine      1969         1
     8 lsu             1978         2
     9 miamidade       1982         0
    10 cincy           1950         5
    # ℹ 6,195 more rows
    
    
    lahman$Pitching |> 
      left_join(players_with_college,
                by = "playerID") |> 
      group_by(schoolID, birthYear) |>
      summarise(strike_outs = sum(SO, na.rm = TRUE), .groups = "drop")|> 
      collect()__
    
    
    # A tibble: 3,663 × 3
       schoolID   birthYear strike_outs
       <chr>          <int>       <dbl>
     1 michigan        1967         888
     2 texas           1958         549
     3 nmstate         1968          98
     4 stanford        1972         218
     5 beloitwi        1872           3
     6 upenn           1964          14
     7 arkansas        1962         537
     8 mntclairst      1961          46
     9 incante         1893         526
    10 illinois        1979          19
    # ℹ 3,653 more rows
…
    
    <SQL>
    SELECT *
    FROM dbplyr_v0YE6sAW9X
    
    
    lahman$Batting |> 
      left_join(players_with_college,
                by = "playerID") |> 
      group_by(schoolID, birthYear) |>
      summarise(home_runs = sum(H, na.rm = TRUE), .groups = "drop") |> 
      collect()__
    
    
    # A tibble: 6,205 × 3
       schoolID   birthYear home_runs
       <chr>          <int>     <dbl>
     1 vermont         1869        38
     2 michigan        1967         2
     3 nmstate         1968         0
     4 cacerri         1971         3
     5 chicago         1874         2
     6 byu             1961        28
     7 pepperdine      1969         1
     8 lsu             1978         2
     9 miamidade       1982         0
    10 stanford        1961      1611
    # ℹ 6,195 more rows
    
    
    lahman$Pitching |> 
      left_join(players_with_college,
                by = "playerID") |> 
      group_by(schoolID, birthYear) |>
      summarise(strike_outs = sum(SO, na.rm = TRUE), .groups = "drop") |> 
      collect()__
    
    
    # A tibble: 3,663 × 3
       schoolID   birthYear strike_outs
       <chr>          <int>       <dbl>
     1 vermont         1869         161
     2 michigan        1967         888
     3 nmstate         1968          98
     4 cacerri         1971         327
     5 byu             1961        1030
     6 pepperdine      1969           4
     7 lsu             1978         162
     8 miamidade       1982          56
     9 stanford        1961           0
    10 incante         1893         526
    # ℹ 3,653 more rows
…
    
    Limiting to domains of interest
    Getting concepts to include
    Adding descendants
    Search completed. Finishing up.
    ✔ 37 candidate concepts identified
    
    Time taken: 0 minutes and 1 seconds
    
    
    # A tibble: 37 × 6
       concept_id found_from   concept_name domain_id vocabulary_id standard_concept
            <int> <chr>        <chr>        <chr>     <chr>         <chr>           
     1     756039 From initia… Respiratory… Condition OMOP Extensi… S               
     2     705076 From initia… Post-acute … Condition OMOP Extensi… S               
     3   37310254 From initia… Otitis medi… Condition SNOMED        S               
     4   37310287 From initia… Myocarditis… Condition SNOMED        S               
     5     703445 From initia… Low risk ca… Condition SNOMED        S               
     6   37311061 From initia… COVID-19     Condition SNOMED        S               
     7    3655975 From initia… Sepsis due … Condition SNOMED        S               
     8    3655977 From initia… Rhabdomyoly… Condition SNOMED        S               
     9    1340294 From initia… Exacerbatio… Condition OMOP Extensi… S               
    10    3656667 From initia… Cardiomyopa… Condition SNOMED        S               
    # ℹ 27 more rows
…
