…
Then we start off with creating an `cdm` object.
    
    
    cdm <- [emptyCdmReference](https://darwin-eu.github.io/omopgenerics/reference/emptyCdmReference.html)(cdmName = "synthetic cdm") |>
      [mockPerson](../reference/mockPerson.html)(nPerson = 10, birthRange = [as.Date](https://rdrr.io/r/base/as.Date.html)([c](https://rdrr.io/r/base/c.html)("1960-01-01", "1980-12-31"))) |>
      [mockObservationPeriod](../reference/mockObservationPeriod.html)()

To populate this cdm object with synthetic vocabulary table, we simply use the `[mockVocabularyTables()](../reference/mockVocabularyTables.html)` function. The `omock` package comes with two set mock vocabulary tables at the moment. “mock” and “Eunomia”, the “mock” vocabulary set contain a very small subset of vocabularies from the CPRD database and “Eunomia” is the vocabulary set from the eunomia test database. <https://ohdsi.github.io/Eunomia/>.
    
    
    cdm <- [mockVocabularyTables](../reference/mockVocabularyTables.html)(cdm, vocabularySet = "mock")
    cdm$vocabulary |> [print](https://rdrr.io/r/base/print.html)()
    #> # A tibble: 65 × 5
    #>    vocabulary_id        vocabulary_name  vocabulary_reference vocabulary_version
    #>  * <chr>                <chr>            <chr>                <chr>             
    #>  1 ABMS                 Provider Specia… http://www.abms.org… mock              
    #>  2 ATC                  WHO Anatomic Th… http://www.whocc.no… mock              
    #>  3 CDM                  OMOP Common Dat… https://github.com/… mock              
    #>  4 CMS Place of Service Place of Servic… http://www.cms.gov/… mock              
    #>  5 Cohort Type          OMOP Cohort Type OMOP generated       mock              
    #>  6 Concept Class        OMOP Concept Cl… OMOP generated       mock              
    #>  7 Condition Status     OMOP Condition … OMOP generated       mock              
    #>  8 Condition Type       OMOP Condition … OMOP generated       mock              
    #>  9 Cost                 OMOP Cost        OMOP generated       mock              
    #> 10 Cost Type            OMOP Cost Type   OMOP generated       mock              
    #> # ℹ 55 more rows
    #> # ℹ 1 more variable: vocabulary_concept_id <int>

set vocabularySet to eunomia to create the cdm with eunomia vocabulary table.
    
    
    cdm <- [mockVocabularyTables](../reference/mockVocabularyTables.html)(cdm, vocabularySet = "eunomia")
    cdm$vocabulary |> [print](https://rdrr.io/r/base/print.html)()
    #> # A tibble: 125 × 5
    #>    vocabulary_id vocabulary_name         vocabulary_reference vocabulary_version
    #>  * <chr>         <chr>                   <chr>                <chr>             
    #>  1 ABMS          Provider Specialty (Am… http://www.abms.org… 2018-06-26 ABMS   
    #>  2 AMT           Australian Medicines T… https://www.nehta.g… AMT 01-SEP-17     
    #>  3 APC           Ambulatory Payment Cla… http://www.cms.gov/… 2018-January-Adde…
    #>  4 ATC           WHO Anatomic Therapeut… FDB UK distribution… RXNORM 2018-08-12 
    #>  5 BDPM          Public Database of Med… http://base-donnees… BDPM 17-JUL-17    
    #>  6 CDM           OMOP Common DataModel   https://github.com/… CDM v6.0.0        
    #>  7 CDT           Current Dental Termino… http://www.nlm.nih.… 2018 Release      
    #>  8 CIEL          Columbia International… https://wiki.openmr… Openmrs 1.11.0 20…
    #>  9 Cohort        Legacy OMOP HOI or DOI… OMOP generated       NA                
    #> 10 Cohort Type   OMOP Cohort Type        OMOP generated       NA                
    #> # ℹ 115 more rows
    #> # ℹ 1 more variable: vocabulary_concept_id <int>
…
