…
## Examples
    
    
    [library](https://rdrr.io/r/base/library.html)([omock](https://ohdsi.github.io/omock/))
    
    # Create a mock CDM reference and add measurement records
    cdm <- [mockCdmReference](mockCdmReference.html)() |>
      [mockPerson](mockPerson.html)() |>
      [mockObservationPeriod](mockObservationPeriod.html)() |>
      mockMeasurement(recordPerson = 5)
    
    # View the generated measurement data
    [print](https://rdrr.io/r/base/print.html)(cdm$measurement)
    #> # A tibble: 1,000 × 20
    #>    measurement_concept_id person_id measurement_date measurement_id
    #>  *                  <int>     <int> <date>                    <int>
    #>  1                3001467         7 2002-01-05                    1
    #>  2                3001467         8 2009-08-09                    2
    #>  3                3001467        10 2017-04-10                    3
    #>  4                3001467         9 2007-05-25                    4
    #>  5                3001467         8 2016-05-05                    5
    #>  6                3001467         7 2012-08-27                    6
    #>  7                3001467         4 2008-05-07                    7
    #>  8                3001467         9 2008-09-20                    8
    #>  9                3001467         2 2007-04-10                    9
    #> 10                3001467         4 2008-06-30                   10
    #> # ℹ 990 more rows
    #> # ℹ 16 more variables: measurement_type_concept_id <int>,
    #> #   measurement_datetime <dttm>, measurement_time <chr>,
    #> #   operator_concept_id <int>, value_as_number <dbl>,
    #> #   value_as_concept_id <int>, unit_concept_id <int>, range_low <dbl>,
    #> #   range_high <dbl>, provider_id <int>, visit_occurrence_id <int>,
    #> #   visit_detail_id <int>, measurement_source_value <chr>, …
…
