…
## Examples
    
    
    [library](https://rdrr.io/r/base/library.html)([omock](https://ohdsi.github.io/omock/))
    
    # Create a mock CDM reference and add observation records
    cdm <- [mockCdmReference](mockCdmReference.html)() |>
      [mockPerson](mockPerson.html)() |>
      [mockObservationPeriod](mockObservationPeriod.html)() |>
      mockObservation(recordPerson = 3)
    
    # View the generated observation data
    [print](https://rdrr.io/r/base/print.html)(cdm$observation)
    #> # A tibble: 180 × 18
    #>    observation_concept_id person_id observation_date observation_id
    #>  *                  <int>     <int> <date>                    <int>
    #>  1                 437738         7 1985-03-01                    1
    #>  2                 437738         4 2009-03-30                    2
    #>  3                 437738         9 2011-01-23                    3
    #>  4                 437738         8 1991-01-02                    4
    #>  5                 437738         6 2013-04-14                    5
    #>  6                 437738         4 2008-11-05                    6
    #>  7                 437738         4 2009-04-11                    7
    #>  8                 437738         4 2008-11-01                    8
    #>  9                 437738         2 2014-08-19                    9
    #> 10                 437738         9 2004-10-12                   10
    #> # ℹ 170 more rows
    #> # ℹ 14 more variables: observation_type_concept_id <int>,
    #> #   observation_datetime <dttm>, value_as_number <dbl>, value_as_string <chr>,
    #> #   value_as_concept_id <int>, qualifier_concept_id <int>,
    #> #   unit_concept_id <int>, provider_id <int>, visit_occurrence_id <int>,
    #> #   visit_detail_id <int>, observation_source_value <chr>,
    #> #   observation_source_concept_id <int>, unit_source_value <chr>, …
…
