…
## Examples
    
    
    [library](https://rdrr.io/r/base/library.html)([omock](https://ohdsi.github.io/omock/))
    
    # Create a mock CDM reference and add drug exposure records
    cdm <- [mockCdmReference](mockCdmReference.html)() |>
      [mockPerson](mockPerson.html)() |>
      [mockObservationPeriod](mockObservationPeriod.html)() |>
      mockDrugExposure(recordPerson = 3)
    
    # View the generated drug exposure data
    [print](https://rdrr.io/r/base/print.html)(cdm$drug_exposure)
    #> # A tibble: 930 × 23
    #>    drug_concept_id person_id drug_exposure_start_date drug_exposure_end_date
    #>  *           <int>     <int> <date>                   <date>                
    #>  1         1361364         7 1984-05-20               1993-07-14            
    #>  2         1361364         5 2014-05-10               2016-10-19            
    #>  3         1361364         6 2008-08-31               2012-08-23            
    #>  4         1361364         8 1989-01-13               1989-07-15            
    #>  5         1361364         2 1988-09-14               2008-05-28            
    #>  6         1361364         1 2007-01-26               2007-02-26            
    #>  7         1361364         3 2019-10-11               2019-11-18            
    #>  8         1361364         1 2005-06-13               2006-12-10            
    #>  9         1361364         7 1983-03-31               1993-05-04            
    #> 10         1361364         7 1976-09-19               2001-08-10            
    #> # ℹ 920 more rows
    #> # ℹ 19 more variables: drug_exposure_id <int>, drug_type_concept_id <int>,
    #> #   drug_exposure_start_datetime <dttm>, drug_exposure_end_datetime <dttm>,
    #> #   verbatim_end_date <date>, stop_reason <chr>, refills <int>, quantity <dbl>,
    #> #   days_supply <int>, sig <chr>, route_concept_id <int>, lot_number <chr>,
    #> #   provider_id <int>, visit_occurrence_id <int>, visit_detail_id <int>,
    #> #   drug_source_value <chr>, drug_source_concept_id <int>, …
…
