…
Returns the modified `cdm` object with the new 'observation_period' table added. This table includes the simulated observation periods for each person, ensuring that each record spans a realistic timeframe based on the person's date of birth.

## Examples
    
    
    [library](https://rdrr.io/r/base/library.html)([omock](https://ohdsi.github.io/omock/))
    
    # Create a mock CDM reference and add observation periods
    cdm <- [mockCdmReference](mockCdmReference.html)() |>
      [mockPerson](mockPerson.html)(nPerson = 100) |>
      mockObservationPeriod()
    
    # View the generated observation period data
    [print](https://rdrr.io/r/base/print.html)(cdm$observation_period)
    #> # A tibble: 100 × 5
    #>    observation_period_id person_id observation_period_s…¹ observation_period_e…²
    #>  *                 <int>     <int> <date>                 <date>                
    #>  1                     1         1 2004-04-30             2019-03-17            
    #>  2                     2         2 2013-01-25             2014-09-22            
    #>  3                     3         3 1985-07-14             2014-08-12            
    #>  4                     4         4 1997-11-25             2009-02-10            
    #>  5                     5         5 1985-04-02             2007-08-04            
    #>  6                     6         6 1960-09-30             1965-02-23            
    #>  7                     7         7 2017-10-17             2018-12-02            
    #>  8                     8         8 2001-08-07             2016-10-19            
    #>  9                     9         9 2007-09-23             2009-12-12            
    #> 10                    10        10 1999-07-26             2010-01-13            
    #> # ℹ 90 more rows
    #> # ℹ abbreviated names: ¹​observation_period_start_date,
    #> #   ²​observation_period_end_date
    #> # ℹ 1 more variable: period_type_concept_id <int>
…
