…
## Examples
    
    
    # \donttest{
    [library](https://rdrr.io/r/base/library.html)([omock](https://ohdsi.github.io/omock/))
    
    # Create a mock CDM reference and add condition occurrences
    cdm <- [mockCdmReference](mockCdmReference.html)() |>
      [mockPerson](mockPerson.html)() |>
      [mockObservationPeriod](mockObservationPeriod.html)() |>
      mockConditionOccurrence(recordPerson = 2)
    
    # View the generated condition occurrence data
    [print](https://rdrr.io/r/base/print.html)(cdm$condition_occurrence)
    #> # A tibble: 120 × 16
    #>    condition_concept_id person_id condition_start_date condition_end_date
    #>  *                <int>     <int> <date>               <date>            
    #>  1               194152         7 2009-08-10           2011-03-13        
    #>  2               194152         5 2003-08-02           2003-10-12        
    #>  3               194152         4 2004-07-07           2005-11-01        
    #>  4               194152         7 2006-04-14           2007-12-11        
    #>  5               194152        10 1985-01-27           1988-07-20        
    #>  6               194152         6 2009-02-13           2009-07-15        
    #>  7               194152         2 1975-08-05           1985-10-15        
    #>  8               194152         6 2008-10-13           2009-08-18        
    #>  9               194152         8 2019-11-22           2019-11-24        
    #> 10               194152         9 2014-06-19           2018-02-15        
    #> # ℹ 110 more rows
    #> # ℹ 12 more variables: condition_occurrence_id <int>,
    #> #   condition_type_concept_id <int>, condition_start_datetime <dttm>,
    #> #   condition_end_datetime <dttm>, condition_status_concept_id <int>,
    #> #   stop_reason <chr>, provider_id <int>, visit_occurrence_id <int>,
    #> #   visit_detail_id <int>, condition_source_value <chr>,
    #> #   condition_source_concept_id <int>, condition_status_source_value <chr>
…
