…
    #> 2                    2 161_acetaminophen 5.3         v5.0 18-JAN-19    
    #> 3                    3 3355_diclofenac   5.3         v5.0 18-JAN-19    
    #> 4                    4 36567_simvastatin 5.3         v5.0 18-JAN-19    
    #> 5                    5 723_amoxicillin   5.3         v5.0 18-JAN-19
    [cohortCount](https://darwin-eu.github.io/omopgenerics/reference/cohortCount.html)(cdm$drugs)
    #> # A tibble: 5 × 3
    #>   cohort_definition_id number_records number_subjects
    #>                  <int>          <int>           <int>
    #> 1                    1            137             137
    #> 2                    2          13908            2679
    #> 3                    3            830             830
    #> 4                    4            182             182
    #> 5                    5           4307            2130
    [attrition](https://darwin-eu.github.io/omopgenerics/reference/attrition.html)(cdm$drugs)
    #> # A tibble: 30 × 7
    #>    cohort_definition_id number_records number_subjects reason_id reason         
    #>                   <int>          <int>           <int>     <int> <chr>          
    #>  1                    1            137             137         1 Initial qualif…
    #>  2                    1            137             137         2 Record in obse…
    #>  3                    1            137             137         3 Record start <…
    #>  4                    1            137             137         4 Non-missing sex
    #>  5                    1            137             137         5 Non-missing ye…
    #>  6                    1            137             137         6 Merge overlapp…
    #>  7                    2          14205            2679         1 Initial qualif…
    #>  8                    2          14205            2679         2 Record in obse…
    #>  9                    2          14205            2679         3 Record start <…
    #> 10                    2          14205            2679         4 Non-missing sex
    #> # ℹ 20 more rows
    #> # ℹ 2 more variables: excluded_records <int>, excluded_subjects <int>
…
When some records in the cohort overlap, the cohort start date will be set to the earliest start date. If we set `overlap = "merge"`, the cohort end date will be set to the latest end date of the overlapping records.
    
    
    cdm$drugs_merge <- [conceptCohort](../reference/conceptCohort.html)(cdm, 
                               conceptSet = drug_codes,
                               overlap = "merge",
                               name = "drugs_merge")
    
    cdm$drugs_merge |>
      [attrition](https://darwin-eu.github.io/omopgenerics/reference/attrition.html)()
    #> # A tibble: 30 × 7
    #>    cohort_definition_id number_records number_subjects reason_id reason         
    #>                   <int>          <int>           <int>     <int> <chr>          
    #>  1                    1            137             137         1 Initial qualif…
    #>  2                    1            137             137         2 Record in obse…
    #>  3                    1            137             137         3 Record start <…
    #>  4                    1            137             137         4 Non-missing sex
    #>  5                    1            137             137         5 Non-missing ye…
    #>  6                    1            137             137         6 Merge overlapp…
    #>  7                    2          14205            2679         1 Initial qualif…
    #>  8                    2          14205            2679         2 Record in obse…
    #>  9                    2          14205            2679         3 Record start <…
    #> 10                    2          14205            2679         4 Non-missing sex
    #> # ℹ 20 more rows
    #> # ℹ 2 more variables: excluded_records <int>, excluded_subjects <int>

Alternatively, if we set `overlap = "extend"`, the cohort end date will be extended by summing the durations of each overlapping record.
    
    
    cdm$drugs_extend <- [conceptCohort](../reference/conceptCohort.html)(cdm, 
                               conceptSet = drug_codes,
                               overlap = "extend",
                               name = "drugs_extend")
    
    cdm$drugs_extend |>
      [attrition](https://darwin-eu.github.io/omopgenerics/reference/attrition.html)()
    #> # A tibble: 50 × 7
    #>    cohort_definition_id number_records number_subjects reason_id reason         
    #>                   <int>          <int>           <int>     <int> <chr>          
    #>  1                    1            137             137         1 Initial qualif…
    #>  2                    1            137             137         2 Record in obse…
    #>  3                    1            137             137         3 Record start <…
    #>  4                    1            137             137         4 Non-missing sex
    #>  5                    1            137             137         5 Non-missing ye…
    #>  6                    1            137             137         6 Add overlappin…
    #>  7                    1            137             137         7 Record in obse…
    #>  8                    1            137             137         8 Record start <…
    #>  9                    1            137             137         9 Non-missing sex
    #> 10                    1            137             137        10 Non-missing ye…
    #> # ℹ 40 more rows
    #> # ℹ 2 more variables: excluded_records <int>, excluded_subjects <int>
…
Note that both cohorts can be slightly different, in the first case four cohorts will always be created, whereas in the second one it will rely on whatever is in the data, if one the diclofenac cohort does not have ‘Female’ records the `diclofenac_female` cohort is not going to be created, if we have individuals with sex ‘None’ then a `{cohort_name}_none` cohort will be created.

The function is very powerful and multiple cohorts can be created in one go, in this example we will create cohorts by “age and sex” and by “year”.
    
    
    cdm$stratified <- cdm$medications |>
      [addAge](https://darwin-eu.github.io/PatientProfiles/reference/addAge.html)(ageGroup = [list](https://rdrr.io/r/base/list.html)("child" = [c](https://rdrr.io/r/base/c.html)(0,17), "18_to_65" = [c](https://rdrr.io/r/base/c.html)(18,64), "65_and_over" = [c](https://rdrr.io/r/base/c.html)(65, Inf))) |>
      [addSex](https://darwin-eu.github.io/PatientProfiles/reference/addSex.html)() |>
      [mutate](https://dplyr.tidyverse.org/reference/mutate.html)(year = [get_year](https://clock.r-lib.org/reference/clock-getters.html)(cohort_start_date)) |>
      [stratifyCohorts](../reference/stratifyCohorts.html)(strata = [list](https://rdrr.io/r/base/list.html)([c](https://rdrr.io/r/base/c.html)("sex", "age_group"), "year"), name = "stratified")
    
    [cohortCount](https://darwin-eu.github.io/omopgenerics/reference/cohortCount.html)(cdm$stratified)
    #> # A tibble: 232 × 3
    #>    cohort_definition_id number_records number_subjects
    #>                   <int>          <int>           <int>
    #>  1                    1           2941            2894
    #>  2                    2            380             370
    #>  3                    3           1397            1382
    #>  4                    4           2916            2857
    #>  5                    5            336             328
    #>  6                    6           1395            1373
    #>  7                    7            435             435
    #>  8                    8              0               0
    #>  9                    9              0               0
    #> 10                   10            395             395
    #> # ℹ 222 more rows
    [settings](https://darwin-eu.github.io/omopgenerics/reference/settings.html)(cdm$stratified)
    #> # A tibble: 232 × 11
    #>    cohort_definition_id cohort_name          target_cohort_id target_cohort_name
    #>                   <int> <chr>                           <int> <chr>             
    #>  1                    1 acetaminophen_femal…                1 acetaminophen     
    #>  2                    2 acetaminophen_femal…                1 acetaminophen     
    #>  3                    3 acetaminophen_femal…                1 acetaminophen     
    #>  4                    4 acetaminophen_male_…                1 acetaminophen     
    #>  5                    5 acetaminophen_male_…                1 acetaminophen     
    #>  6                    6 acetaminophen_male_…                1 acetaminophen     
    #>  7                    7 diclofenac_female_1…                2 diclofenac        
    #>  8                    8 diclofenac_female_6…                2 diclofenac        
    #>  9                    9 diclofenac_female_c…                2 diclofenac        
    #> 10                   10 diclofenac_male_18_…                2 diclofenac        
    #> # ℹ 222 more rows
    #> # ℹ 7 more variables: cdm_version <chr>, vocabulary_version <chr>,
    #> #   target_cohort_table_name <chr>, strata_columns <chr>, sex <chr>,
    #> #   age_group <chr>, year <dbl>
…
    cohort <- cdm |>
        demographicsCohort(name = "cohort4",
        ageRange = [list](https://rdrr.io/r/base/list.html)([c](https://rdrr.io/r/base/c.html)(0, 19),[c](https://rdrr.io/r/base/c.html)(20, 64),[c](https://rdrr.io/r/base/c.html)(65, 150)),
        sex = [c](https://rdrr.io/r/base/c.html)("Male", "Female", "Both"),
        minPriorObservation = 365)
    #> ℹ Building new trimmed cohort
    #> Adding demographics information
    #> Creating initial cohort
    #> Trim sex
    #> Trim age
    #> Trim prior observation
    #> ✔ Cohort trimmed
    
    [attrition](https://darwin-eu.github.io/omopgenerics/reference/attrition.html)(cohort)
    #> # A tibble: 36 × 7
    #>    cohort_definition_id number_records number_subjects reason_id reason         
    #>                   <int>          <int>           <int>     <int> <chr>          
    #>  1                    1             10              10         1 Initial qualif…
    #>  2                    1             10              10         2 Sex requiremen…
    #>  3                    1              4               4         3 Age requiremen…
    #>  4                    1              3               3         4 Prior observat…
    #>  5                    2             10              10         1 Initial qualif…
    #>  6                    2              8               8         2 Sex requiremen…
    #>  7                    2              2               2         3 Age requiremen…
    #>  8                    2              1               1         4 Prior observat…
    #>  9                    3             10              10         1 Initial qualif…
    #> 10                    3              2               2         2 Sex requiremen…
    #> # ℹ 26 more rows
    #> # ℹ 2 more variables: excluded_records <int>, excluded_subjects <int>
…
