…
    #> • future_1191_aspirin: median, q25, q75
    #> • future_7052_morphine: median, q25, q75
    #> • future_7804_oxycodone: median, q25, q75
    #> • days_to_next_visit: median, q25, q75
    #> • sex: count, percentage
    #> • pharyngitis_before: count, percentage
    #> • first_visit: median, q25, q75, min, max
    #> • cohort_start_date: median, q25, q75, min, max
    #> • cohort_end_date: median, q25, q75, min, max
    #> ! Table is collected to memory as not all requested estimates are supported on
    #>   the database side
    #> → Start summary of data, at 2025-07-09 16:21:00.238599
    #> 
    #> ✔ Summary finished, at 2025-07-09 16:21:00.555486
    #> # A tibble: 159 × 6
    #>    group_name  group_level strata_name strata_level variable_name estimate_value
    #>    <chr>       <chr>       <chr>       <chr>        <chr>         <chr>         
    #>  1 cohort_name sinusitis   overall     overall      number recor… 2689          
    #>  2 cohort_name sinusitis   overall     overall      number subje… 2689          
    #>  3 cohort_name sinusitis   overall     overall      cohort_start… 1968-05-06    
    #>  4 cohort_name sinusitis   overall     overall      cohort_start… 1956-07-05    
    #>  5 cohort_name sinusitis   overall     overall      cohort_start… 1978-09-04    
    #>  6 cohort_name sinusitis   overall     overall      cohort_start… 1908-10-30    
    #>  7 cohort_name sinusitis   overall     overall      cohort_start… 2018-02-13    
    #>  8 cohort_name sinusitis   overall     overall      cohort_end_d… 2018-12-14    
    #>  9 cohort_name sinusitis   overall     overall      cohort_end_d… 2018-08-02    
    #> 10 cohort_name sinusitis   overall     overall      cohort_end_d… 2019-04-06    
    #> # ℹ 149 more rows
…
Whether to display the exact quantiles that can be computed or only the qXX to summarise all of them.

## Value

A tibble with the available estimates.

## Examples
    
    
    # \donttest{
    [library](https://rdrr.io/r/base/library.html)([PatientProfiles](https://darwin-eu.github.io/PatientProfiles/))
    
    availableEstimates()
    #> # A tibble: 37 × 4
    #>    variable_type estimate_name      estimate_description           estimate_type
    #>    <chr>         <chr>              <chr>                          <chr>        
    #>  1 date          mean               mean of the variable of inter… date         
    #>  2 date          sd                 standard deviation of the var… date         
    #>  3 date          median             median of the variable of int… date         
    #>  4 date          qXX                qualtile of XX% the variable … date         
    #>  5 date          min                minimum of the variable of in… date         
    #>  6 date          max                maximum of the variable of in… date         
    #>  7 date          count_missing      number of missing values.      integer      
    #>  8 date          percentage_missing percentage of missing values   percentage   
    #>  9 numeric       sum                sum of all the values for the… numeric      
    #> 10 numeric       mean               mean of the variable of inter… numeric      
    #> # ℹ 27 more rows
…
