…
### Joining tables

Since the OMOP CDM is a relational data model joins are very common in analytic code. All of the events in the OMOP CDM are recorded using integers representing standard “concepts”. To see the text description of a concept researchers need to join clinical tables to the concept vocabulary table. Every OMOP CDM should have a copy of the vocabulary used to map the data to the OMOP CDM format.

Here is an example query looking at the most common conditions in the CDM.
    
    
    cdm$condition_occurrence [%>%](../reference/pipe.html) 
      [count](https://dplyr.tidyverse.org/reference/count.html)(condition_concept_id, sort = T) [%>%](../reference/pipe.html) 
      [left_join](https://dplyr.tidyverse.org/reference/mutate-joins.html)(cdm$concept, by = [c](https://rdrr.io/r/base/c.html)("condition_concept_id" = "concept_id")) [%>%](../reference/pipe.html) 
      [collect](https://dplyr.tidyverse.org/reference/compute.html)() [%>%](../reference/pipe.html) 
      [select](https://dplyr.tidyverse.org/reference/select.html)("condition_concept_id", "concept_name", "n") 
    #> # A tibble: 80 × 3
    #>    condition_concept_id concept_name                                           n
    #>                   <int> <chr>                                              <dbl>
    #>  1              4116491 Escherichia coli urinary tract infection             482
    #>  2              4113008 Laceration of hand                                   500
    #>  3              4156265 Facial laceration                                    497
    #>  4              4155034 Laceration of forearm                                507
    #>  5              4109685 Laceration of foot                                   484
    #>  6              4094814 Bullet wound                                          46
    #>  7              4048695 Fracture of vertebral column without spinal cord …    23
    #>  8             40486433 Perennial allergic rhinitis                           64
    #>  9              4051466 Childhood asthma                                      96
    #> 10              4142905 Fracture of rib                                      263
    #> # ℹ 70 more rows

Let’s look at the most common drugs used by patients with “Acute viral pharyngitis”.
    
    
    cdm$condition_occurrence [%>%](../reference/pipe.html) 
      [filter](https://dplyr.tidyverse.org/reference/filter.html)(condition_concept_id == 4112343) [%>%](../reference/pipe.html) 
      [distinct](https://dplyr.tidyverse.org/reference/distinct.html)(person_id) [%>%](../reference/pipe.html) 
      [inner_join](https://dplyr.tidyverse.org/reference/mutate-joins.html)(cdm$drug_exposure, by = "person_id") [%>%](../reference/pipe.html) 
      [count](https://dplyr.tidyverse.org/reference/count.html)(drug_concept_id, sort = TRUE) [%>%](../reference/pipe.html) 
      [left_join](https://dplyr.tidyverse.org/reference/mutate-joins.html)(cdm$concept, by = [c](https://rdrr.io/r/base/c.html)("drug_concept_id" = "concept_id")) [%>%](../reference/pipe.html) 
      [collect](https://dplyr.tidyverse.org/reference/compute.html)() [%>%](../reference/pipe.html) 
      [select](https://dplyr.tidyverse.org/reference/select.html)("concept_name", "n") 
    #> # A tibble: 113 × 2
    #>    concept_name                                                          n
    #>    <chr>                                                             <dbl>
    #>  1 Acetaminophen 325 MG / Hydrocodone Bitartrate 7.5 MG Oral Tablet    305
    #>  2 Penicillin V Potassium 250 MG Oral Tablet                          1666
    #>  3 Methylphenidate Hydrochloride 20 MG Oral Tablet                      63
    #>  4 Amoxicillin 500 MG Oral Tablet                                      246
    #>  5 Warfarin Sodium 5 MG Oral Tablet                                    135
    #>  6 remifentanil                                                         16
    #>  7 Piperacillin 4000 MG / tazobactam 500 MG Injection                   35
    #>  8 {28 (Norethindrone 0.35 MG Oral Tablet) } Pack [Jolivette 28 Day]    12
    #>  9 Lorazepam 2 MG/ML Injectable Solution                                 1
    #> 10 Penicillin V Potassium 500 MG Oral Tablet                          1060
    #> # ℹ 103 more rows
…
    
    cdm_100person <- [cdmSample](../reference/cdmSample.html)(cdm, n = 100)
    
    [tally](https://dplyr.tidyverse.org/reference/count.html)(cdm_100person$person) [%>%](../reference/pipe.html) [pull](https://dplyr.tidyverse.org/reference/pull.html)("n")
    #> [1] 100

## Flatten a CDM

An OMOP CDM is a relational data model. Sometimes it is helpful to flatten this relational structure into a “tidy” dataframe with one row per observation. This transformation should only be done with a small number of persons and events.
    
    
    [cdmFlatten](../reference/cdmFlatten.html)(cdm_pneumonia,
               domain = [c](https://rdrr.io/r/base/c.html)("condition_occurrence", "drug_exposure", "measurement")) [%>%](../reference/pipe.html) 
      [collect](https://dplyr.tidyverse.org/reference/compute.html)()
    #> # A tibble: 3,892 × 8
    #>    person_id observation_concept_id start_date end_date   type_concept_id domain
    #>        <int>                  <int> <date>     <date>               <int> <chr> 
    #>  1      2801                4024958 1939-05-11 1939-05-11            5001 measu…
    #>  2      3614                4024958 1992-07-22 1992-07-22            5001 measu…
    #>  3       550                3006322 1965-09-13 1965-09-13            5001 measu…
    #>  4      3811                3006322 1967-08-31 1967-08-31            5001 measu…
    #>  5       419                3006322 1915-01-11 1915-01-11            5001 measu…
    #>  6      5073                4112343 1996-04-30 1996-05-09           32020 condi…
    #>  7      2333                 381316 2007-04-03 NA                   32020 condi…
    #>  8      4976               19059056 1917-08-16 1917-11-14        38000177 drug_…
    #>  9      2821               40481087 1998-01-10 1998-01-17           32020 condi…
    #> 10       190                 260139 1949-12-26 1950-01-09           32020 condi…
    #> # ℹ 3,882 more rows
    #> # ℹ 2 more variables: observation_concept_name <chr>, type_concept_name <chr>
…
