…
    
    comparison <- [compareCodelists](../reference/compareCodelists.html)(acetaminophen$acetaminophen, hydrocodone$hydrocodone)
    
    comparison |> [glimpse](https://pillar.r-lib.org/reference/glimpse.html)()
    #> Rows: 25,469
    #> Columns: 5
    #> $ concept_id   <int> 1124009, 1125315, 1125320, 1125321, 1125357, 1125358, 112…
    #> $ concept_name <chr> "acetaminophen 635 MG / phenyltoloxamine citrate 55 MG Or…
    #> $ codelist_1   <dbl> 1, 1, 1, 1, 1, 1, 1, 1, 1, 1, 1, 1, 1, 1, 1, 1, 1, 1, 1, …
    #> $ codelist_2   <dbl> NA, NA, NA, NA, NA, NA, NA, NA, NA, NA, NA, NA, NA, NA, N…
    #> $ codelist     <chr> "Only codelist 1", "Only codelist 1", "Only codelist 1", …
    
    comparison |> [filter](https://dplyr.tidyverse.org/reference/filter.html)(codelist == "Both")
    #> # A tibble: 253 × 5
    #>    concept_id concept_name                        codelist_1 codelist_2 codelist
    #>         <int> <chr>                                    <dbl>      <dbl> <chr>   
    #>  1    1129026 acetaminophen 500 MG / hydrocodone…          1          1 Both    
    #>  2   40002683 acetaminophen / hydrocodone Oral C…          1          1 Both    
    #>  3   40002684 acetaminophen / hydrocodone Oral C…          1          1 Both    
    #>  4   40002685 acetaminophen / hydrocodone Oral C…          1          1 Both    
    #>  5   40002686 acetaminophen / hydrocodone Oral C…          1          1 Both    
    #>  6   40002687 acetaminophen / hydrocodone Oral C…          1          1 Both    
    #>  7   40002688 acetaminophen / hydrocodone Oral C…          1          1 Both    
    #>  8   40002689 acetaminophen / hydrocodone Oral C…          1          1 Both    
    #>  9   40002690 acetaminophen / hydrocodone Oral C…          1          1 Both    
    #> 10   40002691 acetaminophen / hydrocodone Oral C…          1          1 Both    
    #> # ℹ 243 more rows
…
