…
    cdm <- [generateDenominatorCohortSet](generateDenominatorCohortSet.html)(
      cdm = cdm, name = "denominator",
      cohortDateRange = [c](https://rdrr.io/r/base/c.html)([as.Date](https://rdrr.io/r/base/as.Date.html)("2008-01-01"), [as.Date](https://rdrr.io/r/base/as.Date.html)("2018-01-01"))
    )
    #> ℹ Creating denominator cohorts
    #> ✔ Cohorts created in 0 min and 2 sec
    estimatePointPrevalence(
      cdm = cdm,
      denominatorTable = "denominator",
      outcomeTable = "outcome",
      interval = "months"
    )
    #> ℹ Getting prevalence for analysis 1 of 1
    #> ✔ Time taken: 0 mins and 1 secs
    #> # A tibble: 649 × 13
    #>    result_id cdm_name group_name            group_level strata_name strata_level
    #>        <int> <chr>    <chr>                 <chr>       <chr>       <chr>       
    #>  1         1 mock     denominator_cohort_n… denominato… overall     overall     
    #>  2         1 mock     denominator_cohort_n… denominato… overall     overall     
    #>  3         1 mock     denominator_cohort_n… denominato… overall     overall     
    #>  4         1 mock     denominator_cohort_n… denominato… overall     overall     
    #>  5         1 mock     denominator_cohort_n… denominato… overall     overall     
    #>  6         1 mock     denominator_cohort_n… denominato… overall     overall     
    #>  7         1 mock     denominator_cohort_n… denominato… overall     overall     
    #>  8         1 mock     denominator_cohort_n… denominato… overall     overall     
    #>  9         1 mock     denominator_cohort_n… denominato… overall     overall     
    #> 10         1 mock     denominator_cohort_n… denominato… overall     overall     
    #> # ℹ 639 more rows
    #> # ℹ 7 more variables: variable_name <chr>, variable_level <chr>,
    #> #   estimate_name <chr>, estimate_type <chr>, estimate_value <chr>,
    #> #   additional_name <chr>, additional_level <chr>
…
    cdm <- [generateDenominatorCohortSet](generateDenominatorCohortSet.html)(
      cdm = cdm, name = "denominator",
      cohortDateRange = [c](https://rdrr.io/r/base/c.html)([as.Date](https://rdrr.io/r/base/as.Date.html)("2008-01-01"), [as.Date](https://rdrr.io/r/base/as.Date.html)("2018-01-01"))
    )
    #> ℹ Creating denominator cohorts
    #> ✔ Cohorts created in 0 min and 2 sec
    estimatePeriodPrevalence(
      cdm = cdm,
      denominatorTable = "denominator",
      outcomeTable = "outcome",
      interval = "months"
    )
    #> ℹ Getting prevalence for analysis 1 of 1
    #> ✔ Time taken: 0 mins and 1 secs
    #> # A tibble: 644 × 13
    #>    result_id cdm_name group_name            group_level strata_name strata_level
    #>        <int> <chr>    <chr>                 <chr>       <chr>       <chr>       
    #>  1         1 mock     denominator_cohort_n… denominato… overall     overall     
    #>  2         1 mock     denominator_cohort_n… denominato… overall     overall     
    #>  3         1 mock     denominator_cohort_n… denominato… overall     overall     
    #>  4         1 mock     denominator_cohort_n… denominato… overall     overall     
    #>  5         1 mock     denominator_cohort_n… denominato… overall     overall     
    #>  6         1 mock     denominator_cohort_n… denominato… overall     overall     
    #>  7         1 mock     denominator_cohort_n… denominato… overall     overall     
    #>  8         1 mock     denominator_cohort_n… denominato… overall     overall     
    #>  9         1 mock     denominator_cohort_n… denominato… overall     overall     
    #> 10         1 mock     denominator_cohort_n… denominato… overall     overall     
    #> # ℹ 634 more rows
    #> # ℹ 7 more variables: variable_name <chr>, variable_level <chr>,
    #> #   estimate_name <chr>, estimate_type <chr>, estimate_value <chr>,
    #> #   additional_name <chr>, additional_level <chr>
…
