…
Then we start off with creating an `cdm` object.
    
    
    cdm <- [emptyCdmReference](https://darwin-eu.github.io/omopgenerics/reference/emptyCdmReference.html)(cdmName = "synthetic cdm") |>
      [mockPerson](../reference/mockPerson.html)(nPerson = 10, birthRange = [as.Date](https://rdrr.io/r/base/as.Date.html)([c](https://rdrr.io/r/base/c.html)("1960-01-01", "1980-12-31"))) |>
      [mockObservationPeriod](../reference/mockObservationPeriod.html)()

To populate this cdm object with synthetic vocabulary table, we simply use the `[mockVocabularyTables()](../reference/mockVocabularyTables.html)` function. The `omock` package comes with two set mock vocabulary tables at the moment. “mock” and “Eunomia”, the “mock” vocabulary set contain a very small subset of vocabularies from the CPRD database and “Eunomia” is the vocabulary set from the eunomia test database. <https://ohdsi.github.io/Eunomia/>.
    
    
    cdm <- [mockVocabularyTables](../reference/mockVocabularyTables.html)(cdm, vocabularySet = "mock")
    cdm$vocabulary |> [print](https://rdrr.io/r/base/print.html)()
    #> # A tibble: 65 × 5
    #>    vocabulary_id        vocabulary_name  vocabulary_reference vocabulary_version
    #>  * <chr>                <chr>            <chr>                <chr>             
    #>  1 ABMS                 Provider Specia… http://www.abms.org… mock              
    #>  2 ATC                  WHO Anatomic Th… http://www.whocc.no… mock              
    #>  3 CDM                  OMOP Common Dat… https://github.com/… mock              
    #>  4 CMS Place of Service Place of Servic… http://www.cms.gov/… mock              
    #>  5 Cohort Type          OMOP Cohort Type OMOP generated       mock              
    #>  6 Concept Class        OMOP Concept Cl… OMOP generated       mock              
    #>  7 Condition Status     OMOP Condition … OMOP generated       mock              
    #>  8 Condition Type       OMOP Condition … OMOP generated       mock              
    #>  9 Cost                 OMOP Cost        OMOP generated       mock              
    #> 10 Cost Type            OMOP Cost Type   OMOP generated       mock              
    #> # ℹ 55 more rows
    #> # ℹ 1 more variable: vocabulary_concept_id <int>

set vocabularySet to eunomia to create the cdm with eunomia vocabulary table.
    
    
    cdm <- [mockVocabularyTables](../reference/mockVocabularyTables.html)(cdm, vocabularySet = "eunomia")
    cdm$vocabulary |> [print](https://rdrr.io/r/base/print.html)()
    #> # A tibble: 125 × 5
    #>    vocabulary_id vocabulary_name         vocabulary_reference vocabulary_version
    #>  * <chr>         <chr>                   <chr>                <chr>             
    #>  1 ABMS          Provider Specialty (Am… http://www.abms.org… 2018-06-26 ABMS   
    #>  2 AMT           Australian Medicines T… https://www.nehta.g… AMT 01-SEP-17     
    #>  3 APC           Ambulatory Payment Cla… http://www.cms.gov/… 2018-January-Adde…
    #>  4 ATC           WHO Anatomic Therapeut… FDB UK distribution… RXNORM 2018-08-12 
    #>  5 BDPM          Public Database of Med… http://base-donnees… BDPM 17-JUL-17    
    #>  6 CDM           OMOP Common DataModel   https://github.com/… CDM v6.0.0        
    #>  7 CDT           Current Dental Termino… http://www.nlm.nih.… 2018 Release      
    #>  8 CIEL          Columbia International… https://wiki.openmr… Openmrs 1.11.0 20…
    #>  9 Cohort        Legacy OMOP HOI or DOI… OMOP generated       NA                
    #> 10 Cohort Type   OMOP Cohort Type        OMOP generated       NA                
    #> # ℹ 115 more rows
    #> # ℹ 1 more variable: vocabulary_concept_id <int>
…
Returns the modified `cdm` object with the new 'observation_period' table added. This table includes the simulated observation periods for each person, ensuring that each record spans a realistic timeframe based on the person's date of birth.

## Examples
    
    
    [library](https://rdrr.io/r/base/library.html)([omock](https://ohdsi.github.io/omock/))
    
    # Create a mock CDM reference and add observation periods
    cdm <- [mockCdmReference](mockCdmReference.html)() |>
      [mockPerson](mockPerson.html)(nPerson = 100) |>
      mockObservationPeriod()
    
    # View the generated observation period data
    [print](https://rdrr.io/r/base/print.html)(cdm$observation_period)
    #> # A tibble: 100 × 5
    #>    observation_period_id person_id observation_period_s…¹ observation_period_e…²
    #>  *                 <int>     <int> <date>                 <date>                
    #>  1                     1         1 2004-04-30             2019-03-17            
    #>  2                     2         2 2013-01-25             2014-09-22            
    #>  3                     3         3 1985-07-14             2014-08-12            
    #>  4                     4         4 1997-11-25             2009-02-10            
    #>  5                     5         5 1985-04-02             2007-08-04            
    #>  6                     6         6 1960-09-30             1965-02-23            
    #>  7                     7         7 2017-10-17             2018-12-02            
    #>  8                     8         8 2001-08-07             2016-10-19            
    #>  9                     9         9 2007-09-23             2009-12-12            
    #> 10                    10        10 1999-07-26             2010-01-13            
    #> # ℹ 90 more rows
    #> # ℹ abbreviated names: ¹​observation_period_start_date,
    #> #   ²​observation_period_end_date
    #> # ℹ 1 more variable: period_type_concept_id <int>
…
size
    

Size in bytes of the dataset.

size_mb
    

Size in Mega bytes of the dataset.

## Examples
    
    
    mockDatasets
    #> # A tibble: 24 × 6
    #>    dataset_name               url            cdm_name cdm_version   size size_mb
    #>    <chr>                      <chr>          <chr>    <chr>        <dbl>   <dbl>
    #>  1 GiBleed                    https://examp… GiBleed  5.3         6.75e6       6
    #>  2 empty_cdm                  https://examp… empty_c… 5.3         8.21e8     783
    #>  3 synpuf-1k_5.3              https://examp… synpuf-… 5.3         5.93e8     566
    #>  4 synpuf-1k_5.4              https://examp… synpuf-… 5.4         3.97e8     379
    #>  5 synthea-allergies-10k      https://examp… synthea… 5.3         8.40e8     801
    #>  6 synthea-anemia-10k         https://examp… synthea… 5.3         8.40e8     801
    #>  7 synthea-breast_cancer-10k  https://examp… synthea… 5.3         8.41e8     802
    #>  8 synthea-contraceptives-10k https://examp… synthea… 5.3         8.42e8     803
    #>  9 synthea-covid19-10k        https://examp… synthea… 5.3         8.41e8     802
    #> 10 synthea-covid19-200k       https://examp… synthea… 5.3         1.18e9    1124
    #> # ℹ 14 more rows
…
## Examples
    
    
    # \donttest{
    [library](https://rdrr.io/r/base/library.html)([omock](https://ohdsi.github.io/omock/))
    
    # Create a mock CDM reference and add condition occurrences
    cdm <- [mockCdmReference](mockCdmReference.html)() |>
      [mockPerson](mockPerson.html)() |>
      [mockObservationPeriod](mockObservationPeriod.html)() |>
      mockConditionOccurrence(recordPerson = 2)
    
    # View the generated condition occurrence data
    [print](https://rdrr.io/r/base/print.html)(cdm$condition_occurrence)
    #> # A tibble: 120 × 16
    #>    condition_concept_id person_id condition_start_date condition_end_date
    #>  *                <int>     <int> <date>               <date>            
    #>  1               194152         7 2009-08-10           2011-03-13        
    #>  2               194152         5 2003-08-02           2003-10-12        
    #>  3               194152         4 2004-07-07           2005-11-01        
    #>  4               194152         7 2006-04-14           2007-12-11        
    #>  5               194152        10 1985-01-27           1988-07-20        
    #>  6               194152         6 2009-02-13           2009-07-15        
    #>  7               194152         2 1975-08-05           1985-10-15        
    #>  8               194152         6 2008-10-13           2009-08-18        
    #>  9               194152         8 2019-11-22           2019-11-24        
    #> 10               194152         9 2014-06-19           2018-02-15        
    #> # ℹ 110 more rows
    #> # ℹ 12 more variables: condition_occurrence_id <int>,
    #> #   condition_type_concept_id <int>, condition_start_datetime <dttm>,
    #> #   condition_end_datetime <dttm>, condition_status_concept_id <int>,
    #> #   stop_reason <chr>, provider_id <int>, visit_occurrence_id <int>,
    #> #   visit_detail_id <int>, condition_source_value <chr>,
    #> #   condition_source_concept_id <int>, condition_status_source_value <chr>
…
## Examples
    
    
    [library](https://rdrr.io/r/base/library.html)([omock](https://ohdsi.github.io/omock/))
    
    # Create a mock CDM reference and add drug exposure records
    cdm <- [mockCdmReference](mockCdmReference.html)() |>
      [mockPerson](mockPerson.html)() |>
      [mockObservationPeriod](mockObservationPeriod.html)() |>
      mockDrugExposure(recordPerson = 3)
    
    # View the generated drug exposure data
    [print](https://rdrr.io/r/base/print.html)(cdm$drug_exposure)
    #> # A tibble: 930 × 23
    #>    drug_concept_id person_id drug_exposure_start_date drug_exposure_end_date
    #>  *           <int>     <int> <date>                   <date>                
    #>  1         1361364         7 1984-05-20               1993-07-14            
    #>  2         1361364         5 2014-05-10               2016-10-19            
    #>  3         1361364         6 2008-08-31               2012-08-23            
    #>  4         1361364         8 1989-01-13               1989-07-15            
    #>  5         1361364         2 1988-09-14               2008-05-28            
    #>  6         1361364         1 2007-01-26               2007-02-26            
    #>  7         1361364         3 2019-10-11               2019-11-18            
    #>  8         1361364         1 2005-06-13               2006-12-10            
    #>  9         1361364         7 1983-03-31               1993-05-04            
    #> 10         1361364         7 1976-09-19               2001-08-10            
    #> # ℹ 920 more rows
    #> # ℹ 19 more variables: drug_exposure_id <int>, drug_type_concept_id <int>,
    #> #   drug_exposure_start_datetime <dttm>, drug_exposure_end_datetime <dttm>,
    #> #   verbatim_end_date <date>, stop_reason <chr>, refills <int>, quantity <dbl>,
    #> #   days_supply <int>, sig <chr>, route_concept_id <int>, lot_number <chr>,
    #> #   provider_id <int>, visit_occurrence_id <int>, visit_detail_id <int>,
    #> #   drug_source_value <chr>, drug_source_concept_id <int>, …
…
## Examples
    
    
    [library](https://rdrr.io/r/base/library.html)([omock](https://ohdsi.github.io/omock/))
    
    # Create a mock CDM reference and add measurement records
    cdm <- [mockCdmReference](mockCdmReference.html)() |>
      [mockPerson](mockPerson.html)() |>
      [mockObservationPeriod](mockObservationPeriod.html)() |>
      mockMeasurement(recordPerson = 5)
    
    # View the generated measurement data
    [print](https://rdrr.io/r/base/print.html)(cdm$measurement)
    #> # A tibble: 1,000 × 20
    #>    measurement_concept_id person_id measurement_date measurement_id
    #>  *                  <int>     <int> <date>                    <int>
    #>  1                3001467         7 2002-01-05                    1
    #>  2                3001467         8 2009-08-09                    2
    #>  3                3001467        10 2017-04-10                    3
    #>  4                3001467         9 2007-05-25                    4
    #>  5                3001467         8 2016-05-05                    5
    #>  6                3001467         7 2012-08-27                    6
    #>  7                3001467         4 2008-05-07                    7
    #>  8                3001467         9 2008-09-20                    8
    #>  9                3001467         2 2007-04-10                    9
    #> 10                3001467         4 2008-06-30                   10
    #> # ℹ 990 more rows
    #> # ℹ 16 more variables: measurement_type_concept_id <int>,
    #> #   measurement_datetime <dttm>, measurement_time <chr>,
    #> #   operator_concept_id <int>, value_as_number <dbl>,
    #> #   value_as_concept_id <int>, unit_concept_id <int>, range_low <dbl>,
    #> #   range_high <dbl>, provider_id <int>, visit_occurrence_id <int>,
    #> #   visit_detail_id <int>, measurement_source_value <chr>, …
…
## Examples
    
    
    [library](https://rdrr.io/r/base/library.html)([omock](https://ohdsi.github.io/omock/))
    
    # Create a mock CDM reference and add observation records
    cdm <- [mockCdmReference](mockCdmReference.html)() |>
      [mockPerson](mockPerson.html)() |>
      [mockObservationPeriod](mockObservationPeriod.html)() |>
      mockObservation(recordPerson = 3)
    
    # View the generated observation data
    [print](https://rdrr.io/r/base/print.html)(cdm$observation)
    #> # A tibble: 180 × 18
    #>    observation_concept_id person_id observation_date observation_id
    #>  *                  <int>     <int> <date>                    <int>
    #>  1                 437738         7 1985-03-01                    1
    #>  2                 437738         4 2009-03-30                    2
    #>  3                 437738         9 2011-01-23                    3
    #>  4                 437738         8 1991-01-02                    4
    #>  5                 437738         6 2013-04-14                    5
    #>  6                 437738         4 2008-11-05                    6
    #>  7                 437738         4 2009-04-11                    7
    #>  8                 437738         4 2008-11-01                    8
    #>  9                 437738         2 2014-08-19                    9
    #> 10                 437738         9 2004-10-12                   10
    #> # ℹ 170 more rows
    #> # ℹ 14 more variables: observation_type_concept_id <int>,
    #> #   observation_datetime <dttm>, value_as_number <dbl>, value_as_string <chr>,
    #> #   value_as_concept_id <int>, qualifier_concept_id <int>,
    #> #   unit_concept_id <int>, provider_id <int>, visit_occurrence_id <int>,
    #> #   visit_detail_id <int>, observation_source_value <chr>,
    #> #   observation_source_concept_id <int>, unit_source_value <chr>, …
…
Returns the modified CDM object with the updated concept table reflecting the newly added concepts.The function directly modifies the provided CDM object.

## Examples
    
    
    [library](https://rdrr.io/r/base/library.html)([omock](https://ohdsi.github.io/omock/))
    [library](https://rdrr.io/r/base/library.html)([dplyr](https://dplyr.tidyverse.org))
    
    # Create a mock CDM reference and add concepts in the 'Condition' domain
    cdm <- [mockCdmReference](mockCdmReference.html)() |> mockConcepts(
    conceptSet = [c](https://rdrr.io/r/base/c.html)(100, 200), domain = "Condition")
    
    # View the updated concept entries for the 'Condition' domain
    cdm$concept |> [filter](https://dplyr.tidyverse.org/reference/filter.html)(domain_id == "Condition")
    #> # A tibble: 21 × 10
    #>    concept_id concept_name              domain_id vocabulary_id concept_class_id
    #>         <dbl> <chr>                     <chr>     <chr>         <chr>           
    #>  1     194152 Renal agenesis and dysge… Condition SNOMED        Clinical Finding
    #>  2     444074 Victim of vehicular AND/… Condition SNOMED        Clinical Finding
    #>  3    4151660 Alkaline phosphatase bon… Condition SNOMED        Clinical Finding
    #>  4    4226696 Manic mood                Condition SNOMED        Clinical Finding
    #>  5    4304866 Elevated mood             Condition SNOMED        Clinical Finding
    #>  6   40475132 Arthropathies             Condition ICD10         ICD10 SubChapter
    #>  7   40475135 Other joint disorders     Condition ICD10         ICD10 SubChapter
    #>  8   45430573 Renal agenesis or dysgen… Condition Read          Read            
    #>  9   45511667 Manic mood                Condition Read          Read            
    #> 10   45533778 Other acquired deformiti… Condition ICD10         ICD10 Hierarchy 
    #> # ℹ 11 more rows
    #> # ℹ 5 more variables: standard_concept <chr>, concept_code <chr>,
    #> #   valid_start_date <date>, valid_end_date <date>, invalid_reason <chr>
…
