…
    
    summarisedResult <- [summariseClinicalRecords](../reference/summariseClinicalRecords.html)(cdm, "condition_occurrence")
    #> ℹ Adding variables of interest to condition_occurrence.
    #> ℹ Summarising records per person in condition_occurrence.
    #> ℹ Summarising records in observation in condition_occurrence.
    #> ℹ Summarising records with start before birth date in condition_occurrence.
    #> ℹ Summarising records with end date before start date in condition_occurrence.
    #> ℹ Summarising domains in condition_occurrence.
    #> ℹ Summarising standard concepts in condition_occurrence.
    #> ℹ Summarising source vocabularies in condition_occurrence.
    #> ℹ Summarising concept types in condition_occurrence.
    #> ℹ Summarising missing data in condition_occurrence.
    
    summarisedResult |> [print](https://rdrr.io/r/base/print.html)()
    #> # A tibble: 74 × 13
    #>    result_id cdm_name       group_name group_level      strata_name strata_level
    #>        <int> <chr>          <chr>      <chr>            <chr>       <chr>       
    #>  1         1 mockOmopSketch omop_table condition_occur… overall     overall     
    #>  2         1 mockOmopSketch omop_table condition_occur… overall     overall     
    #>  3         1 mockOmopSketch omop_table condition_occur… overall     overall     
    #>  4         1 mockOmopSketch omop_table condition_occur… overall     overall     
    #>  5         1 mockOmopSketch omop_table condition_occur… overall     overall     
    #>  6         1 mockOmopSketch omop_table condition_occur… overall     overall     
    #>  7         1 mockOmopSketch omop_table condition_occur… overall     overall     
    #>  8         1 mockOmopSketch omop_table condition_occur… overall     overall     
    #>  9         1 mockOmopSketch omop_table condition_occur… overall     overall     
    #> 10         1 mockOmopSketch omop_table condition_occur… overall     overall     
    #> # ℹ 64 more rows
    #> # ℹ 7 more variables: variable_name <chr>, variable_level <chr>,
    #> #   estimate_name <chr>, estimate_type <chr>, estimate_value <chr>,
    #> #   additional_name <chr>, additional_level <chr>
…
By default, the function returns the number of records (`estimate_name == "count_records"`) for each concept_id. To include counts by person, you can set the `countBy` argument to `"person"` or to c`("record", "person")` to obtain both record and person counts.
    
    
    [summariseConceptIdCounts](../reference/summariseConceptIdCounts.html)(cdm,
      omopTableName = "drug_exposure",
      countBy = [c](https://rdrr.io/r/base/c.html)("record", "person")
    ) |>
      [select](https://dplyr.tidyverse.org/reference/select.html)( variable_name, estimate_name, estimate_value) 
    #> # A tibble: 432 × 3
    #>    variable_name                                    estimate_name estimate_value
    #>    <chr>                                            <chr>         <chr>         
    #>  1 Midazolam                                        count_records 100           
    #>  2 Midazolam                                        count_subjec… 66            
    #>  3 Diclofenac Sodium 75 MG Delayed Release Oral Ta… count_records 100           
    #>  4 Diclofenac Sodium 75 MG Delayed Release Oral Ta… count_subjec… 61            
    #>  5 tetanus and diphtheria toxoids, adsorbed, prese… count_records 100           
    #>  6 tetanus and diphtheria toxoids, adsorbed, prese… count_subjec… 66            
    #>  7 Diazepam                                         count_records 100           
    #>  8 Diazepam                                         count_subjec… 62            
    #>  9 Astemizole                                       count_records 100           
    #> 10 Astemizole                                       count_subjec… 63            
    #> # ℹ 422 more rows
…
    # Connect to mock database
    cdm <- [mockOmopSketch](../reference/mockOmopSketch.html)()

## Summarise observation periods

Let’s now use the `[summariseObservationPeriod()](../reference/summariseObservationPeriod.html)` function from the OmopSketch package to help us have an overview of one of the `observation_period` table, including some statistics such as the `Number of subjects` and `Duration in days` for each observation period (e.g., 1st, 2nd)
    
    
    summarisedResult <- [summariseObservationPeriod](../reference/summariseObservationPeriod.html)(cdm = cdm)
    
    summarisedResult
    #> # A tibble: 3,126 × 13
    #>    result_id cdm_name       group_name      group_level strata_name strata_level
    #>        <int> <chr>          <chr>           <chr>       <chr>       <chr>       
    #>  1         1 mockOmopSketch observation_pe… all         overall     overall     
    #>  2         1 mockOmopSketch observation_pe… all         overall     overall     
    #>  3         1 mockOmopSketch observation_pe… all         overall     overall     
    #>  4         1 mockOmopSketch observation_pe… all         overall     overall     
    #>  5         1 mockOmopSketch observation_pe… all         overall     overall     
    #>  6         1 mockOmopSketch observation_pe… all         overall     overall     
    #>  7         1 mockOmopSketch observation_pe… all         overall     overall     
    #>  8         1 mockOmopSketch observation_pe… all         overall     overall     
    #>  9         1 mockOmopSketch observation_pe… all         overall     overall     
    #> 10         1 mockOmopSketch observation_pe… all         overall     overall     
    #> # ℹ 3,116 more rows
    #> # ℹ 7 more variables: variable_name <chr>, variable_level <chr>,
    #> #   estimate_name <chr>, estimate_type <chr>, estimate_value <chr>,
    #> #   additional_name <chr>, additional_level <chr>
…
## Summarise in observation

OmopSketch can also help you to summarise the number of records in observation during specific intervals of time.
    
    
    summarisedResult <- [summariseInObservation](../reference/summariseInObservation.html)(cdm$observation_period,
      interval = "years"
    )
    
    summarisedResult |>
      [select](https://dplyr.tidyverse.org/reference/select.html)(variable_name, estimate_name, estimate_value, additional_name, additional_level)
    #> # A tibble: 132 × 5
    #>    variable_name   estimate_name estimate_value additional_name additional_level
    #>    <chr>           <chr>         <chr>          <chr>           <chr>           
    #>  1 Records in obs… count         1              time_interval   1955-01-01 to 1…
    #>  2 Records in obs… percentage    1.00           time_interval   1955-01-01 to 1…
    #>  3 Records in obs… count         2              time_interval   1956-01-01 to 1…
    #>  4 Records in obs… percentage    2.00           time_interval   1956-01-01 to 1…
    #>  5 Records in obs… count         3              time_interval   1957-01-01 to 1…
    #>  6 Records in obs… percentage    3.00           time_interval   1957-01-01 to 1…
    #>  7 Records in obs… count         4              time_interval   1958-01-01 to 1…
    #>  8 Records in obs… percentage    4.00           time_interval   1958-01-01 to 1…
    #>  9 Records in obs… count         4              time_interval   1959-01-01 to 1…
    #> 10 Records in obs… percentage    4.00           time_interval   1959-01-01 to 1…
    #> # ℹ 122 more rows
…
If `output = "person"`, the trend in the number of individuals in observation is returned.
    
    
    summarisedResult <- [summariseInObservation](../reference/summariseInObservation.html)(cdm$observation_period, 
                                               output = [c](https://rdrr.io/r/base/c.html)("person"),
                                               interval = "years",
                                               sex = TRUE, 
                                               ageGroup = [list](https://rdrr.io/r/base/list.html)("<35" = [c](https://rdrr.io/r/base/c.html)(0, 34), ">=35" = [c](https://rdrr.io/r/base/c.html)(35, Inf)), 
                                               )                                        
    
    
    summarisedResult |>
      [select](https://dplyr.tidyverse.org/reference/select.html)(strata_level, variable_name, estimate_name, estimate_value, additional_name, additional_level)
    #> # A tibble: 968 × 6
    #>    strata_level variable_name       estimate_name estimate_value additional_name
    #>    <chr>        <chr>               <chr>         <chr>          <chr>          
    #>  1 overall      Subjects in observ… count         1              time_interval  
    #>  2 Male         Subjects in observ… count         1              time_interval  
    #>  3 <35          Subjects in observ… count         1              time_interval  
    #>  4 Male &&& <35 Subjects in observ… count         1              time_interval  
    #>  5 overall      Subjects in observ… percentage    1.00           time_interval  
    #>  6 Male         Subjects in observ… percentage    1.00           time_interval  
    #>  7 <35          Subjects in observ… percentage    1.00           time_interval  
    #>  8 Male &&& <35 Subjects in observ… percentage    1.00           time_interval  
    #>  9 overall      Subjects in observ… count         2              time_interval  
    #> 10 Male         Subjects in observ… count         2              time_interval  
    #> # ℹ 958 more rows
    #> # ℹ 1 more variable: additional_level <chr>

If `output = "sex"`, the trend in the number of females in observation is returned. If `sex = TRUE` is specified, this stratification is ignored.
    
    
    summarisedResult <- [summariseInObservation](../reference/summariseInObservation.html)(cdm$observation_period, 
                                               output = [c](https://rdrr.io/r/base/c.html)("sex"),
                                               interval = "years",
                                               sex = TRUE, 
                                               ageGroup = [list](https://rdrr.io/r/base/list.html)("<35" = [c](https://rdrr.io/r/base/c.html)(0, 34), ">=35" = [c](https://rdrr.io/r/base/c.html)(35, Inf)), 
                                               )                                        
    
    
    summarisedResult |>
      [select](https://dplyr.tidyverse.org/reference/select.html)(strata_level, variable_name, estimate_name, estimate_value, additional_name, additional_level)
    #> # A tibble: 314 × 6
    #>    strata_level variable_name       estimate_name estimate_value additional_name
    #>    <chr>        <chr>               <chr>         <chr>          <chr>          
    #>  1 overall      Females in observa… count         1              time_interval  
    #>  2 <35          Females in observa… count         1              time_interval  
    #>  3 overall      Females in observa… percentage    1.00           time_interval  
    #>  4 <35          Females in observa… percentage    1.00           time_interval  
    #>  5 overall      Females in observa… count         1              time_interval  
    #>  6 <35          Females in observa… count         1              time_interval  
    #>  7 overall      Females in observa… percentage    1.00           time_interval  
    #>  8 <35          Females in observa… percentage    1.00           time_interval  
    #>  9 overall      Females in observa… count         1              time_interval  
    #> 10 <35          Females in observa… count         1              time_interval  
    #> # ℹ 304 more rows
    #> # ℹ 1 more variable: additional_level <chr>

If `output = "age`, the trend in the median age of the population in observation is calculated. If `ageGroup` and `interval` are both specified, the age is computed at the beginning of the interval or of the observation period, whichever is more recent.
    
    
    summarisedResult <- [summariseInObservation](../reference/summariseInObservation.html)(
      observationPeriod = cdm$observation_period, 
      output = [c](https://rdrr.io/r/base/c.html)("age"),
      interval = "years",
      ageGroup = [list](https://rdrr.io/r/base/list.html)("<35" = [c](https://rdrr.io/r/base/c.html)(0, 34), ">=35" = [c](https://rdrr.io/r/base/c.html)(35, Inf)) 
    )                                        
    
    
    summarisedResult |>
      [select](https://dplyr.tidyverse.org/reference/select.html)(strata_level, variable_name, estimate_name, estimate_value, additional_name, additional_level)
    #> # A tibble: 165 × 6
    #>    strata_level variable_name      estimate_name estimate_value additional_name
    #>    <chr>        <chr>              <chr>         <chr>          <chr>          
    #>  1 overall      Age in observation median        1              time_interval  
    #>  2 <35          Age in observation median        1              time_interval  
    #>  3 overall      Age in observation median        1              time_interval  
    #>  4 <35          Age in observation median        1              time_interval  
    #>  5 overall      Age in observation median        2              time_interval  
    #>  6 <35          Age in observation median        2              time_interval  
    #>  7 overall      Age in observation median        2              time_interval  
    #>  8 <35          Age in observation median        2              time_interval  
    #>  9 overall      Age in observation median        3              time_interval  
    #> 10 <35          Age in observation median        3              time_interval  
    #> # ℹ 155 more rows
    #> # ℹ 1 more variable: additional_level <chr>
…
    summarisedResult
    #> # A tibble: 69 × 13
    #>    result_id cdm_name       group_name group_level      strata_name strata_level
    #>        <int> <chr>          <chr>      <chr>            <chr>       <chr>       
    #>  1         1 mockOmopSketch omop_table condition_occur… overall     overall     
    #>  2         1 mockOmopSketch omop_table condition_occur… overall     overall     
    #>  3         1 mockOmopSketch omop_table condition_occur… overall     overall     
    #>  4         1 mockOmopSketch omop_table condition_occur… overall     overall     
    #>  5         1 mockOmopSketch omop_table condition_occur… overall     overall     
    #>  6         1 mockOmopSketch omop_table condition_occur… overall     overall     
    #>  7         1 mockOmopSketch omop_table condition_occur… overall     overall     
    #>  8         1 mockOmopSketch omop_table condition_occur… overall     overall     
    #>  9         1 mockOmopSketch omop_table condition_occur… overall     overall     
    #> 10         1 mockOmopSketch omop_table condition_occur… overall     overall     
    #> # ℹ 59 more rows
    #> # ℹ 7 more variables: variable_name <chr>, variable_level <chr>,
    #> #   estimate_name <chr>, estimate_type <chr>, estimate_value <chr>,
    #> #   additional_name <chr>, additional_level <chr>
…
    [requireEunomia](https://darwin-eu.github.io/CDMConnector/reference/requireEunomia.html)()
    #> ℹ `EUNOMIA_DATA_FOLDER` set to: /tmp/RtmpebncMJ.
    #> 
    #> Download completed!
    con <- [dbConnect](https://dbi.r-dbi.org/reference/dbConnect.html)([duckdb](https://r.duckdb.org/reference/duckdb.html)(), [eunomiaDir](https://darwin-eu.github.io/CDMConnector/reference/eunomiaDir.html)())
    #> Creating CDM database /tmp/RtmpebncMJ/GiBleed_5.3.zip
    cdm <- [cdmFromCon](https://darwin-eu.github.io/CDMConnector/reference/cdmFromCon.html)(con = con, cdmSchema = "main", writeSchema = "main")
    
    summariseConceptIdCounts(
      cdm = cdm,
      omopTableName = "condition_occurrence",
      countBy = [c](https://rdrr.io/r/base/c.html)("record", "person"),
      sex = TRUE
    )
    #> # A tibble: 476 × 13
    #>    result_id cdm_name group_name group_level          strata_name strata_level
    #>        <int> <chr>    <chr>      <chr>                <chr>       <chr>       
    #>  1         1 Synthea  omop_table condition_occurrence overall     overall     
    #>  2         1 Synthea  omop_table condition_occurrence overall     overall     
    #>  3         1 Synthea  omop_table condition_occurrence overall     overall     
    #>  4         1 Synthea  omop_table condition_occurrence overall     overall     
    #>  5         1 Synthea  omop_table condition_occurrence overall     overall     
    #>  6         1 Synthea  omop_table condition_occurrence overall     overall     
    #>  7         1 Synthea  omop_table condition_occurrence overall     overall     
    #>  8         1 Synthea  omop_table condition_occurrence overall     overall     
    #>  9         1 Synthea  omop_table condition_occurrence overall     overall     
    #> 10         1 Synthea  omop_table condition_occurrence overall     overall     
    #> # ℹ 466 more rows
    #> # ℹ 7 more variables: variable_name <chr>, variable_level <chr>,
    #> #   estimate_name <chr>, estimate_type <chr>, estimate_value <chr>,
    #> #   additional_name <chr>, additional_level <chr>
…
